<?xml version="1.0" encoding="utf-8"?>
<!-- Generator: Adobe Illustrator 18.0.0, SVG Export Plug-In . SVG Version: 6.00 Build 0)  -->
<!DOCTYPE svg PUBLIC "-//W3C//DTD SVG 1.1//EN" "http://www.w3.org/Graphics/SVG/1.1/DTD/svg11.dtd">
<svg version="1.1" id="Layer_1" xmlns="http://www.w3.org/2000/svg" xmlns:xlink="http://www.w3.org/1999/xlink" x="0px" y="0px"
	 viewBox="0 0 36 36" enable-background="new 0 0 36 36" xml:space="preserve">
<g id="Layer_64">
	<g>
		<path fill="#333333" d="M0,32.3h14.1V11.1H0V32.3z M7.4,31.2c-0.4,0-0.7-0.3-0.7-0.7c0-0.4,0.3-0.7,0.7-0.7c0.4,0,0.7,0.3,0.7,0.7
			C8,30.9,7.7,31.2,7.4,31.2z M2,13.1h10l0,15.6H2V13.1z"/>
		<polygon fill="#333333" points="7,6 29.6,6 29.6,15.2 31.6,15.2 31.6,4.1 5,4.1 5,10.2 7,10.2 		"/>
		<rect x="15" y="19.6" fill="#333333" width="10.5" height="2"/>
		<path fill="#333333" d="M26.5,16v15.9H36V16H26.5z M31.5,16.6c0.1,0,0.2,0.1,0.2,0.2c0,0.1-0.1,0.2-0.2,0.2s-0.2-0.1-0.2-0.2
			C31.2,16.8,31.3,16.6,31.5,16.6z M30.1,17.4h2.7v0.2h-2.7V17.4z M31.4,31.2c-0.3,0-0.5-0.2-0.5-0.5c0-0.3,0.2-0.5,0.5-0.5
			c0.3,0,0.5,0.2,0.5,0.5C31.9,31,31.7,31.2,31.4,31.2z M34.5,29.4c-2.5,0-5.2,0-6.4,0v-11l6.4,0V29.4z"/>
		<polygon fill="#333333" points="17.9,22.4 15,22.4 15,23.6 22,23.6 22,24.1 15,24.1 15,25.2 25.5,25.2 25.5,22.4 18.7,22.4 		"/>
	</g>
</g>
<g id="text">
</g>
</svg>
