<?xml version="1.0" encoding="utf-8"?>
<!-- Generator: Adobe Illustrator 18.0.0, SVG Export Plug-In . SVG Version: 6.00 Build 0)  -->
<!DOCTYPE svg PUBLIC "-//W3C//DTD SVG 1.1//EN" "http://www.w3.org/Graphics/SVG/1.1/DTD/svg11.dtd">
<svg version="1.1" xmlns="http://www.w3.org/2000/svg" xmlns:xlink="http://www.w3.org/1999/xlink" x="0px" y="0px"
	 viewBox="0 0 640 360" enable-background="new 0 0 640 360" xml:space="preserve">
<g id="Layer_1" display="none">
	<g display="inline">
		<path fill="#575757" d="M459.2,142.3c0,0.2,0,0.5,0.1,0.7c0.5,0.6,0.4,1.3,0.4,2c0,8.6,0,17.3,0,25.9c0,26.3,0,52.5,0,78.8
			c0,0.4,0,0.9,0,1.3c0.1,5.2,0,10.3,0,15.5c0,6.6,0,13.2,0,19.8c0,0.7,0.1,1.4-0.4,2l-0.1,0c-0.4,0.3-0.7,0.3-1.1-0.1
			c-0.2-0.4-0.2-0.9-0.2-1.4c0.1-47.4,0-94.7,0-142.1c0-0.8-0.1-1.5,0.2-2.3C458.5,142,458.8,142.1,459.2,142.3z"/>
		<path fill="#70706F" d="M456.1,292.3c-14.3,0-28.5,0-42.8,0c-22.7,0-45.3,0-68,0c-0.8,0-1.4-0.4-1.9-1l0,0c-0.1-0.1-0.1-0.2,0-0.3
			c0.3-0.2,0.7-0.2,1-0.2c0.4,0,0.7,0,1.1,0.1c0.5,0.2,1,0.1,1.6,0.1c35.8,0,71.6,0,107.3,0c0.4,0,0.9,0,1.3,0
			c0.4-0.1,0.8-0.2,1.2-0.1c0.1,0,0.2,0.1,0.4,0.1c0.1,0.1,0.1,0.2,0,0.3l0,0C456.9,291.7,456.6,292,456.1,292.3z"/>
		<path fill="#E2E2E2" d="M459.3,251c0-2,0-4.1,0-6.1c0-33.7,0-67.4,0-101.1c0-0.3,0-0.6,0-0.8c0.3,0,0.7-0.1,0.9,0.2
			c0,35.9,0,71.8,0,107.8C459.9,251.3,459.6,251.3,459.3,251z"/>
		<path fill="#706F6F" d="M321.2,292.3c-8.8,0-17.7,0-26.5,0c-22.4,0-44.8,0-67.2,0c-0.7,0-1.4,0-2.2,0c-0.3-0.4-0.3-0.7,0-1
			c0.6-0.3,1.2-0.2,1.8-0.2c30.8,0,61.5,0,92.3,0c0.6,0,1.2-0.1,1.8,0.2C321.5,291.6,321.5,291.9,321.2,292.3z"/>
		<path fill="#AFAFAF" d="M136.2,65.3c0-0.1,0.1-0.1,0.1-0.2c0,0,0.1-0.1,0.1-0.1c0.4-0.2,0.6-0.6,1-0.8c0.1-0.1,0.3-0.1,0.4-0.1
			c0.7,0.2,1.4,0.2,2.1,0.2c3.7,0,7.3-0.1,11,0.1c0.3,0.3,0.7,0.4,1.2,0.4c0.6,0,1.1,0,1.7,0c84.1,0,168.3,0,252.4,0
			c0.7,0,1.4,0,2,0c0.4,0,0.8,0,1.1,0.3c0.2,0.1,0.5,0.1,0.7,0.2c-0.2,0.3-0.5,0.3-0.7,0.3c-0.4,0-0.7,0-1.1,0c-0.2,0-0.3,0-0.5,0
			c-0.8,0-1.7,0-2.5,0c-88.1,0-176.2,0-264.3,0c-0.8,0-1.5,0-2.3,0c-0.4-0.1-0.8,0-1.3,0c-0.3,0-0.6,0-1-0.1
			C136.3,65.4,136.2,65.4,136.2,65.3z"/>
		<path fill="#EBEBEB" d="M150.8,64.3c-4.6,0-9.1,0-13.7,0c0.2-0.8,0.7-0.5,1.2-0.3c89.7,0,179.5,0,269.2,0c0.7,0,1.7-0.4,1.8,0.9
			c-0.3,0-0.6,0-0.9,0c-0.3-0.3-0.7-0.3-1.1-0.3c-0.6,0-1.2,0-1.8,0c-84.2,0-168.3,0-252.5,0C152.3,64.7,151.5,64.9,150.8,64.3z"/>
		<path fill="#F7F8F8" d="M414.4,72.2c0.7-0.1,1,0.2,0.9,0.9c0,0.2,0,0.3,0,0.5c0,20.8,0,41.6,0,62.3c0,0.6,0.3,1.5-0.9,1.4
			c-0.6-0.5-0.4-1.2-0.4-1.8c0-7.1,0-14.2,0-21.3c0-13.3,0-26.7,0-40C414,73.5,413.8,72.8,414.4,72.2z"/>
		<path fill="#DBDADA" d="M414.4,138.2c0.6,0,1.2,0.1,1.8,0.1c12.9,0,25.7,0,38.6,0c0.6,0,1.5-0.3,1.3,0.9c-0.1,0.1-0.1,0.1-0.2,0.2
			c-0.5,0.3-1.1,0.3-1.6,0.3c-12.7,0-25.5,0-38.2,0c-0.5,0-1,0-1.4-0.1c-0.4-0.2-0.5-0.5-0.5-0.9
			C414.2,138.4,414.3,138.3,414.4,138.2z"/>
		<path fill="#959595" d="M341.1,260.2c-11.6,0-23.2,0-34.7,0c-1,0.3-0.5,1.2-0.8,1.8c-0.1,0.1-0.2,0.2-0.3,0.1
			c-0.1-0.1-0.2-0.2-0.3-0.3c-0.1-1-0.5-2.1,0.6-2.8c0.5-0.2,0.9-0.2,1.4-0.2c10.9,0,21.8,0,32.7,0c0.3,0,0.6,0,1,0.1
			c0.1,0,0.3,0.1,0.4,0.1c0.4,0.2,0.4,0.5,0.3,0.9C341.3,260,341.2,260.1,341.1,260.2z"/>
		<path fill="#959494" d="M341.2,288.2c0-8.9,0-17.7,0-26.6c0-0.5,0-1-0.1-1.4c0,0,0.1-0.1,0.1-0.1c0.4-0.2,0.8-0.2,1.1,0.2
			c0.2,0.4,0.2,0.8,0.2,1.2c0,8.9,0,17.8,0,26.7c0,0.2,0,0.4,0,0.6c0,0.1-0.1,0.3-0.2,0.4C341.1,289.7,341.4,288.7,341.2,288.2z"/>
		<path fill="#DEDEDE" d="M414.4,72.2c0,0.3,0,0.6,0,1c0,21,0,42.1,0,63.1c0,0.3,0,0.6,0,1c0,0.3,0,0.6,0,0.9c0,0-0.1,0.1-0.1,0.1
			c-0.5-0.1-0.5-0.6-0.6-0.9c-0.1-0.4,0-0.7,0-1.1c0-21.3,0-42.6,0-63.9c0-0.3,0-0.6,0-0.8c0-0.4,0-0.7,0-1.1c0-0.4-0.1-0.7-0.3-1
			c-0.3-0.3-0.4-0.7-0.1-1.1c1-0.1,0.9,0.7,1,1.3C414.4,70.5,414.4,71.4,414.4,72.2z"/>
		<path fill="#F3F3F3" d="M138.4,64.1c-0.4,0.1-0.9-0.2-1.2,0.3c0,0,0,0,0,0c-0.3,0.3-0.7,0.3-1,0.7c0,0,0,0,0,0
			c-0.3-0.1-0.8,0.1-0.9-0.3c-0.1-0.4,0.4-0.3,0.5-0.5c0.7-1.3,2-1.1,3.1-1.1c0.6,0,1.2,0,1.8,0c2.9,0,5.8,0,8.6,0
			c0,0.1,0,0.2,0,0.2c-3.3,0-6.7,0-10,0C138.9,63.4,138.3,63.2,138.4,64.1z"/>
		<path fill="#BEBEBE" d="M225.3,291.3c0,0.3,0,0.6,0,0.9c-0.3,0-0.7,0-1,0c0-1,0-2.1,0-3.1c-0.1-0.8,0.3-1,1-1
			c0.1,0.1,0.2,0.2,0.2,0.3c0.2,0.6,0.1,1.2,0.1,1.7C225.6,290.6,225.6,291,225.3,291.3z"/>
		<path fill="#C7C6C6" d="M321.2,292.3c0-0.3,0-0.6,0-0.9c-0.3-0.3-0.3-0.7-0.3-1.1c0-0.3,0-0.6,0-0.9c0-0.3,0-0.6,0.1-0.9
			c0-0.1,0.1-0.2,0.2-0.3c0.6,0,1,0.2,1,1c-0.1,0.7-0.1,1.4,0,2.1C322.3,292.1,322,292.4,321.2,292.3z"/>
		<path fill="#B4B4B4" d="M317.2,287c0.4,0.1,0.8-0.1,1.2,0.2c0,0.1-0.1,0.1-0.1,0.2c-0.3,0.2-0.7,0.2-1.1,0.2c-0.3,0-0.6,0-1,0
			c-0.5,0-1,0-1.5-0.1c-0.4-0.2-0.6-0.5-0.5-0.9c0-0.1,0.1-0.2,0.2-0.3c0.6,0,1.2,0,1.8,0.1C316.4,286.7,316.9,286.7,317.2,287z"/>
		<path fill="#8D8D8D" d="M307.3,269.3c0,0.6,0.1,1.3,0.1,1.9c-0.1,0-0.1,0-0.2,0c-0.9-0.8-1.5-1.7-0.9-2.9
			C307.5,267.8,307,268.9,307.3,269.3z"/>
		<path fill="#9F9F9F" d="M307.3,269.3c-0.3-0.3-0.1-1.1-0.9-1c0,0-0.1-0.1-0.1-0.1c-0.2-0.6-0.3-1.2,0.1-1.8c1.2-0.5,0.7,0.6,1,1
			C307.3,268,307.3,268.6,307.3,269.3z"/>
		<path fill="#595959" d="M309.2,282.3c0,0.3,0.1,0.6,0.1,0.9c0.2,0.3,0.2,0.6,0,1c-0.1,0.1-0.2,0.2-0.4,0.2
			c-1.1-0.3-1.2-0.7-0.8-2.1C308.5,282,308.9,282,309.2,282.3z"/>
		<path fill="#D5D5D5" d="M308.3,277.2c1.6,0.1,0.7,1.3,0.9,2c-0.3,0.3-0.7,0.3-1,0c-0.3-0.5-0.3-1.1-0.2-1.7
			C308.1,277.4,308.2,277.3,308.3,277.2z"/>
		<path fill="#ABAAAB" d="M311.2,285.3c1.1,0.1,2,1,3.2,0.9c0,0-0.1,0.1-0.1,0.1c-0.3,0.2-0.6,0.3-0.9,0.3c-0.3,0-0.6,0-1,0
			c-0.4,0-0.8,0-1.2-0.2c-0.1-0.1-0.2-0.2-0.2-0.3C310.9,285.8,311,285.6,311.2,285.3z"/>
		<path fill="#9D9D9D" d="M305.4,262.1c0-0.3,0-0.6,0-0.9c-0.1-0.8,0.2-1.1,1-1c-0.5,0.6-0.1,1.3-0.2,1.9
			C305.9,262.3,305.7,262.3,305.4,262.1z"/>
		<path fill="#8F8E8E" d="M308.3,277.2c0,0.1-0.1,0.2-0.1,0.3c-0.2,0-0.3-0.1-0.4-0.3c-0.2-0.6,0.1-1.4-0.6-1.9
			c-0.2-0.3-0.2-0.6,0-0.9c0.2-0.2,0.4-0.3,0.7-0.2c0.1,0,0.2,0.1,0.3,0.2C308.3,275.3,308.3,276.2,308.3,277.2z"/>
		<path fill="#959595" d="M305.4,262.1c0.2,0,0.5,0,0.7,0c0.4,1,0.1,2.1,0.3,3.1c-0.1,0-0.1,0-0.2,0.1c-0.1,0-0.2-0.1-0.3-0.2
			c-0.1-0.3-0.1-0.6-0.2-0.9c0-0.4-0.1-0.7-0.4-1C305.1,262.8,305.1,262.5,305.4,262.1L305.4,262.1z"/>
		<path fill="#DAD9D9" d="M307.3,267.4c-0.3-0.3-0.1-1.1-0.9-1c-0.4-0.4-0.4-0.8-0.1-1.2c0,0,0.1,0,0.1,0c0.7-0.1,1,0.2,0.9,0.9
			C307.3,266.5,307.3,266.9,307.3,267.4z"/>
		<path fill="#C2C1C1" d="M308.2,274.4c-0.1,0-0.1,0-0.2,0c-0.3-0.3-0.6-0.7-0.9-1c-0.2-0.4-0.2-0.8,0.1-1.1c0.4-0.3,0.8-0.2,1,0.3
			C308.3,273.1,308.2,273.7,308.2,274.4z"/>
		<path fill="#BDBCBB" d="M343.4,291.1c0,0.1,0,0.2,0,0.2c-1.1-0.1-1.2-1-1.3-1.8c-0.1-0.1,0-0.1,0.1-0.2c0-0.1,0-0.1,0-0.2
			c0.1,0,0.1,0,0.2,0c0.1,0.1,0.2,0.1,0.2,0.2C342.8,290,344,290.1,343.4,291.1z"/>
		<path fill="#606060" d="M458,140.2c0.3,0.3,0.2,0.8,0.3,1.1c0,0-0.1,0.1-0.1,0.1c-0.1,0.1-0.2,0.1-0.3,0.1c-0.8,0-0.9-0.7-1.1-1.2
			c0.1-0.3,0.3-0.4,0.6-0.4C457.6,139.9,457.8,140,458,140.2z"/>
		<path fill="#D9D8D7" d="M343.3,291.3c0.9-0.3,1.1,1,1.9,1C344.6,292.1,343.3,293,343.3,291.3z"/>
		<path fill="#B3B3B3" d="M308.3,279.1c0.3,0,0.6,0,0.9,0c0,0.4,0,0.8,0,1.2c-0.3,0.3-0.7,0.3-1,0
			C308,279.9,307.9,279.5,308.3,279.1z"/>
		<path fill="#A1A0A0" d="M413.4,68.4c-0.3,0.8,1.1,1,0.8,1.9c-0.2,0.2-0.4,0.2-0.7,0.1c-0.2-0.1-0.3-0.2-0.4-0.4
			c-0.1-0.2-0.1-0.5-0.2-0.7c0-0.1,0-0.2,0-0.4c0-0.2,0.1-0.5,0.3-0.6C413.2,68.4,413.3,68.4,413.4,68.4z"/>
		<path fill="#848484" d="M457.3,140.2c-0.2,0-0.4,0-0.5,0.2c-0.1,0.2-0.3,0.2-0.5,0.1c-0.3-0.4-0.3-0.8-0.2-1.2c0,0,0-0.1,0-0.1
			c0.4,0.1,0.8,0,1.2,0.3C457.5,139.7,457.5,139.9,457.3,140.2z"/>
		<path fill="#B7B6B6" d="M456.1,292.3c0.2-0.6,0.5-1.1,1.2-0.9c0,0.3,0,0.6,0,0.9C456.9,292.3,456.5,292.3,456.1,292.3z"/>
		<path fill="#8D8D8C" d="M311.2,285.3c0,0.3,0,0.5,0,0.8c-0.9,0.6-1.3-0.4-1.9-0.7c-0.1-0.1,0-0.3,0.1-0.4c0.3-0.2,0.6-0.1,0.9,0.1
			C310.5,285.2,310.9,285.3,311.2,285.3z"/>
		<path fill="#E0E0E0" d="M308.3,272.4c-0.3-0.2-0.6-0.3-0.9-0.3c-0.3-0.3-0.3-0.6-0.1-1c0,0,0.1,0,0.1,0
			C308.4,271.1,308.3,271.8,308.3,272.4z"/>
		<path fill="#D9D9D8" d="M320.3,287.3c0.7-0.1,1,0.2,1,0.9c0,0-0.1,0.1-0.1,0.1c-0.3,0.2-0.5,0.2-0.8,0.1c-0.1-0.1-0.2-0.1-0.2-0.3
			C320,287.8,320,287.5,320.3,287.3z"/>
		<path fill="#BFBEBE" d="M320.3,287.3c0,0.3,0,0.6,0,0.9c-0.3,0.3-0.6,0.3-1,0.1c-0.3-0.3-0.2-0.7,0-1
			C319.6,287.3,320,287.3,320.3,287.3z"/>
		<path fill="#C7C7C6" d="M310.2,285.1c-0.3,0-0.6,0-0.9,0c-0.3-0.3-0.3-0.6-0.1-1l0.1,0c0.3-0.3,0.6-0.3,0.9,0
			C310.2,284.5,310.2,284.8,310.2,285.1z"/>
		<path fill="#CFCFCE" d="M410.3,65.3c0.7-0.1,1.1,0.1,1,0.9c0,0.1-0.1,0.1-0.1,0.2c-0.3,0.2-0.6,0.2-0.9-0.1
			C410,65.9,410,65.6,410.3,65.3z"/>
		<path fill="#787777" d="M410.3,65.3c0,0.3,0,0.6,0,0.9c0,0-0.1,0.1-0.1,0.1c-0.3,0.1-0.5,0.1-0.8,0c-0.1-0.1-0.2-0.1-0.2-0.2
			c-0.1-0.3-0.1-0.6,0.1-0.8c0.3,0,0.5-0.1,0.8-0.1C410.1,65.3,410.2,65.3,410.3,65.3z"/>
		<path fill="#E3E3E3" d="M310.2,284.2c-0.3,0-0.6,0-0.9,0c0-0.3,0-0.7,0-1C310,283.1,310.3,283.4,310.2,284.2z"/>
		<path fill="#959494" d="M319.3,287.3c0,0.3,0,0.6,0,0.9c-0.3,0.3-0.6,0.3-1,0.1c-0.3-0.3-0.3-0.6,0-1c0,0,0-0.1,0-0.1
			C318.7,287.3,319,287.3,319.3,287.3z"/>
		<path fill="#BAB9B8" d="M412.3,67.1c0.7,0,1,0.3,0.8,1.1c-0.3,0.2-0.6,0.2-0.9,0.1c-0.3-0.2-0.3-0.5-0.2-0.9
			C412.1,67.3,412.2,67.2,412.3,67.1z"/>
		<path fill="#5E5D5D" d="M412.2,68.1c0.3,0,0.6,0.1,0.9,0.1c0,0.1,0,0.1,0.1,0.2c0,0.3,0,0.5-0.1,0.8
			C412,69.3,411.9,69.2,412.2,68.1z"/>
		<path fill="#B3B3B3" d="M411.3,66.2c0.7,0,1.1,0.2,1,1c0,0-0.1,0.1-0.1,0.1c-1.1,0.2-1.2,0.1-0.9-1L411.3,66.2z"/>
		<path fill="#767677" d="M309.2,282.3c-0.3,0-0.6,0-0.9,0c-0.3-0.3-0.3-0.6-0.1-1c0.3-0.2,0.7-0.2,1,0
			C309.2,281.6,309.2,281.9,309.2,282.3z"/>
		<path fill="#939292" d="M309.2,281.3c-0.3,0-0.6,0-0.9,0c-0.3-0.3-0.3-0.6,0-1c0.3,0,0.6,0,0.9,0
			C309.2,280.7,309.2,281,309.2,281.3z"/>
		<path fill="#8C8C8B" d="M459.2,142.3c-0.3,0-0.6,0-0.9,0c-0.3-0.3-0.3-0.6-0.1-0.9c0,0,0.1,0,0.1,0
			C459.2,141.2,459.4,141.6,459.2,142.3z"/>
		<path fill="#CFCECE" d="M317.2,287c-0.5,0-1,0.1-1-0.7C316.7,286.3,317.2,286.3,317.2,287z"/>
		<path fill="#CFCECE" d="M457.3,140.2c0-0.2,0-0.5-0.1-0.7c0.6-0.1,0.8,0.1,0.7,0.7C457.8,140.2,457.6,140.2,457.3,140.2z"/>
		<path fill="#D3D2D2" d="M342.1,289.3c0,0.1,0,0.1-0.1,0.2c-1,0-1-0.6-0.9-1.3C341.4,288.6,341.4,289.2,342.1,289.3z"/>
		<path fill="#FDFDFD" d="M507.7,222.2c0.8,0.2,0.5,0.8,0.5,1.3c0,6.9,0,13.7,0,20.6c0,12.7,0,25.4,0,38.1c0,2,0,4,0,6
			c0,0.7-0.2,1.1-0.9,1c-0.1-0.1-0.1-0.1-0.2-0.2c-0.3-0.5-0.2-1-0.2-1.5c0-21.2,0-42.4,0-63.6c0-0.2,0-0.4,0-0.6
			c0-0.4,0-0.8,0.3-1.1C507.4,222.2,507.6,222.2,507.7,222.2z"/>
		<path fill="#C2C1C1" d="M505.1,292.3c-0.3,0-0.7,0-1,0c-0.2-0.3-0.2-0.6-0.1-0.9c0.3-0.4,0.7-0.4,1.1-0.4c0.1,0,0.2,0.1,0.3,0.2
			C505.3,291.6,505.3,292,505.1,292.3z"/>
		<path fill="#D5D6D5" d="M507.3,289.2c0,0.6-0.2,1.1-0.9,1c-0.1,0-0.1-0.1-0.2-0.1c-0.2-0.3-0.2-0.6,0.1-0.9
			C506.6,288.9,506.9,288.9,507.3,289.2L507.3,289.2z"/>
		<path fill="#BBBBBB" d="M506.3,290.2c0,0.6-0.2,1.1-1,1c0,0-0.1-0.1-0.1-0.1c-0.2-0.3-0.2-0.6,0-0.9c0.3-0.2,0.6-0.2,0.9,0
			L506.3,290.2z"/>
		<path fill="#BCBBBB" d="M132.1,69.1c0.1,0,0.2,0,0.3,0c0.3,0.3,0.3,0.7,0.3,1c0,0.2,0,0.3,0,0.5c0,0.8,0,1.6,0,2.4
			c0,59.5,0,119,0,178.5c0,0.7,0,1.4,0,2.2c-0.3,0.9,0.9,1.5,0.7,2.4c0,0.1-0.1,0.2-0.3,0.3c-1.1,0.2-1.1-0.7-1.3-1.4
			c-0.1-0.6-0.1-1.3-0.1-1.9c0-50.9,0-101.8,0-152.7c0-0.2,0-0.4,0-0.6c0-9.2,0-18.4,0-27.6c0-0.6,0-1.2,0-1.8
			C131.8,70,131.7,69.5,132.1,69.1z"/>
		<path fill="#F0EFEF" d="M132.1,69.1c0,0.4,0,0.8-0.1,1.2c-0.6,0.7-0.5,1.6-0.6,2.4c-0.1,3.1,0.1,6.2-0.1,9.3
			c-0.2,0.6-0.4,1.2-1.2,1.2c0-2.6,0-5.3,0-7.9c0-1.2,0-2.4,0-3.6c0-0.8-0.1-1.5,0.7-2c0.3-0.2,0.2-0.5,0.2-0.8
			c0-0.4-0.1-0.9,0.5-0.8C132.3,68.2,132.1,68.8,132.1,69.1z"/>
		<path fill="#989898" d="M133.2,67.9c-0.1-0.9,0.6-0.6,1.1-0.8c0.1,0.1,0.2,0.1,0.2,0.3c0.1,0.8-0.2,1-1,0.9
			C133.3,68.3,133.2,68.1,133.2,67.9z"/>
		<path fill="#989797" d="M133.2,67.9c0.1,0.1,0.1,0.2,0.2,0.3c0.3,0.3,0.2,0.6,0.2,1c0,0.1-0.1,0.2-0.1,0.3c-0.2,0.4-0.4,0.9-1,0.5
			c0-0.3,0-0.6,0-0.9c0,0,0,0,0,0c0.3-0.3,0.4-0.7,0.7-1C133.1,68.1,133.1,68,133.2,67.9z"/>
		<path fill="#B5B6B6" d="M135.2,66.2c-0.1-0.7,0.2-1,0.9-0.9c0,0,0.1,0.1,0.1,0.1c0.2,0.3,0.2,0.6,0.1,0.9
			c-0.2,0.3-0.5,0.3-0.8,0.2C135.4,66.4,135.3,66.3,135.2,66.2z"/>
		<path fill="#939292" d="M134.2,67.1c-0.1-0.8,0.4-1,1-1c0,0,0,0.1,0,0.1c0.2,1,0.1,1.2-0.9,1C134.3,67.2,134.2,67.2,134.2,67.1z"
			/>
		<path fill="#CACACA" d="M133.1,68.2c0,0.5,0.1,1.1-0.7,1C132.3,68.6,132.3,68.1,133.1,68.2z"/>
		<path fill="#ABABAB" d="M470.3,290.3c-0.3-0.3-0.2-0.7-0.2-1c-0.3-0.3-0.4-0.7-0.7-1c0-13,0-26,0-39c0-8.4,0-16.7,0-25.1
			c0.3-0.3,0.4-0.7,0.4-1.1c0-0.3,0-0.6,0.3-0.8c0.1,0,0.1-0.1,0.2-0.1c0.1,0.1,0.1,0.1,0.2,0.2c0.2,0.3,0.2,0.7,0.2,1.1
			c0.1,1.3,0,2.6,0,3.8c0,19.7,0,39.4,0,59.1c0,0.8,0,1.6,0,2.4c-0.1,0.4,0,0.7-0.1,1.1C470.5,290.1,470.4,290.2,470.3,290.3z"/>
		<path fill="#FFFFFF" d="M470.1,222.3c0,0.3,0,0.6,0,0.9c-0.2,0.2-0.5,0.2-0.7,0c-0.4,0.4-0.2,1-0.2,1.5c0,16.9,0,33.7,0,50.6
			c-0.8,0.1-0.7-0.6-0.7-1.1c0-4.2,0-8.4,0-12.6c0-6,0.1-12.1,0-18.1c-0.1-2.6-0.2-5.2-0.2-7.8c0-2.5,0-5,0-7.5c0-0.7,0.1-1.4-0.5-2
			c-0.2-0.2-0.3-0.5-0.1-0.7c0.9-0.7,0.5-1.7,0.6-2.5c0-0.3,0.1-0.6,0.2-0.9c0.1-0.6,0.5-0.9,1.1-0.8
			C470.2,221.3,470,221.8,470.1,222.3z"/>
		<path fill="#DEDDDD" d="M502.2,219.1c0.8,0.3,1.3,1,2.2,1.2c0.1,0.3-0.1,0.3-0.3,0.4c-0.4,0-0.8-0.1-1.2,0c-9.7,0-19.5,0-29.2,0
			c-0.4,0-0.7,0-1.1-0.1c-0.1-0.1-0.2-0.1-0.3-0.3c0-0.1,0-0.1,0-0.2c0.3-0.3,0.7-0.3,1-0.4c1-0.7,2.1-0.7,3.3-0.7
			c2.5,0,5-0.2,7.5,0.1c3,0.3,6,0.1,9.1,0.2c0.4,0,0.8,0.1,1.2-0.1c0.2,0,0.3,0,0.5,0c0.2-0.2,0.5-0.3,0.7-0.3c2-0.1,4-0.1,6.1,0
			C501.8,218.8,502,218.9,502.2,219.1z"/>
		<path fill="#FFFFFF" d="M473.2,220.1c-0.3,0-0.6,0-1,0c-0.3-0.1-0.9,0.2-0.9-0.4c0-0.5,0.4-0.5,0.8-0.5c0.2,0,0.5,0,0.6-0.1
			c1-1.2,2.4-0.7,3.6-0.8c2.6-0.2,5.2,0.3,7.8,0.2c0.5,0,1,0.1,1,0.7c-1.5,0.3-3.1,0.1-4.6,0.1c-1.8,0-3.5,0-5.3,0
			C474.4,219.2,473.7,219.4,473.2,220.1z"/>
		<path fill="#F7F8F8" d="M502.2,219.1c-2.5,0-5,0-7.4,0c0-0.4-0.3-0.6-0.5-1c2.9,0.1,5.9-0.3,8.8,0.6
			C502.9,219.3,502.5,219,502.2,219.1z"/>
		<path fill="#F7F8F8" d="M473.2,220.1c-0.1-0.9,0.4-0.9,1.1-0.9c3.6,0,7.3,0,10.9,0c3,0,6.1,0,9.1,0c-0.4,0.4-0.9,0.2-1.4,0.2
			c-5.1,0-10.3,0-15.4,0C476,219.3,474.5,219.4,473.2,220.1z"/>
		<path fill="#CDCCCC" d="M471.3,220.3c0.3,0,0.6,0,0.9,0c0,0,0.1,0.1,0.1,0.1c0.2,0.3,0.2,0.6,0,0.9c-0.2,0.3-0.5,0.3-0.8,0.2
			c-0.1,0-0.2-0.1-0.3-0.2c0-0.1,0-0.1,0-0.2C471,220.8,471,220.5,471.3,220.3z"/>
		<path fill="#CFD0D0" d="M470.3,222.2c-0.1-0.7,0.3-1,0.9-1c0,0,0.1,0.1,0.1,0.1c0.2,0.3,0.3,0.6,0,1c-0.3,0.2-0.6,0.3-1,0
			C470.3,222.3,470.3,222.2,470.3,222.2z"/>
		<path fill="#FFFFFF" d="M471.3,220.3c0,0.2,0,0.5-0.1,0.7c-0.3-0.1-0.8,0.2-0.8-0.3C470.4,220.1,470.9,220.4,471.3,220.3z"/>
		<path fill="#FFFFFF" d="M469.1,276.2c0,0.3,0,0.6,0,1c-0.4,0-0.7,0-0.7-0.5C468.4,276.2,468.8,276.3,469.1,276.2z"/>
		<path fill="#C9C9C8" d="M504.2,220.6c0.1-0.1,0.1-0.2,0.2-0.2c0.7-0.1,1,0.2,1,0.9c0,0.1-0.1,0.2-0.2,0.2
			c-0.3,0.1-0.6,0.1-0.9-0.1C504,221.1,503.9,220.9,504.2,220.6z"/>
		<path fill="#B7B7B7" d="M505.4,221.2c0.7-0.1,1,0.4,1,1c0,0-0.1,0.1-0.1,0.1c-0.3,0.1-0.6,0.1-0.9-0.1c-0.2-0.3-0.2-0.6,0-0.9
			C505.3,221.3,505.3,221.2,505.4,221.2z"/>
		<path fill="#DEDEDD" d="M507.2,222.2c0,0.3,0,0.7,0,1c-0.3,0.2-0.7,0.2-1,0c-0.2-0.3-0.2-0.7,0-1c0,0,0.1,0,0.1,0
			C506.6,222.2,506.9,222.2,507.2,222.2z"/>
		<path fill="#FDFEFF" d="M223.4,296.2c-0.3-0.3-1.1,0.2-1-0.6c0.1-0.6,0.6-0.5,1.1-0.5c0.4,0,0.7,0.2,0.7,0.6
			C224.2,296.3,223.9,296.4,223.4,296.2z"/>
		<path fill="#979797" d="M240.1,260.4c0-0.1,0-0.1,0-0.2c-0.3-0.4-0.7-0.4-1.2-0.4c-12.2,0-24.4,0-36.6,0c-0.4,0-0.8,0-1.1,0.3
			c-3.6,0-7.1,0-10.7,0c-16.8,0-33.7,0-50.5,0c-0.6,0-1.1,0-1.7,0c-0.3-0.4-0.9-0.3-1.2-0.7c-0.1,0-0.2,0-0.2,0
			c0-0.3,0.2-0.4,0.4-0.5c0.2,0,0.3-0.1,0.5-0.1c0.8-0.1,1.6,0,2.4,0c32.5,0,65,0,97.4,0c0.8,0,1.6,0,2.4,0.1
			c0.7,0.1,1.2,0.4,1.5,1.1c0.1,0.3,0.1,0.6,0,1c-0.1,0.1-0.2,0.2-0.3,0.2c-0.4-0.1-0.5-0.6-0.9-0.7
			C240.2,260.4,240.2,260.4,240.1,260.4z"/>
		<path fill="#808080" d="M239.1,269.3c0-0.7,0-1.4,0.1-2.1c0.3-0.4-0.2-1.6,1-1c0.4,0.7,0.2,1.4,0.2,2.1c-0.3,1.1-0.5,2.1-1.3,3
			c-0.3-0.3-0.3-0.6-0.3-1C238.8,269.9,238.9,269.6,239.1,269.3z"/>
		<path fill="#E3E3E3" d="M240.1,266.1c-0.8-0.1-0.6,0.7-0.9,1c0-1,0-2,0-3.1c0-0.7,0.3-0.9,0.9-0.9c0.4,0.2,0.3,0.6,0.4,1
			C240.4,264.9,240.6,265.6,240.1,266.1z"/>
		<path fill="#AAAAAA" d="M232.1,286.3c1.5,0,2.6-1.3,4.1-1.2c0,0,0.1,0.1,0.1,0.1c0.1,0.8-0.5,1.1-1.1,1.3
			c-0.6,0.1-1.1,0.1-1.7,0.1c-0.4,0-0.8,0-1.1-0.1C232.3,286.5,232.2,286.4,232.1,286.3z"/>
		<path fill="#727171" d="M238.2,276.2c0-0.6,0.1-1.3,0.1-1.9c0.1-0.1,0.2-0.2,0.3-0.2c0.3,0,0.5,0,0.7,0.2c0.3,0.6,0.2,1.1,0.1,1.7
			c-0.2,0.4-0.7,0.6-0.6,1.1c0,0.4,0,0.7-0.4,1c-0.1,0-0.2,0-0.3-0.1c-0.2-0.3-0.2-0.6-0.2-0.9C237.9,276.8,238,276.5,238.2,276.2z"
			/>
		<path fill="#AFAFAF" d="M230.3,286.3c0.6,0,1.2-0.1,1.8-0.1c0,0,0.1,0.1,0.1,0.1c0.4,1-0.5,0.9-1,1.1c-0.6,0.1-1.2,0.2-1.8-0.1
			c-0.1-0.1-0.2-0.2-0.1-0.4l0,0C229.6,286.7,230,286.7,230.3,286.3z"/>
		<path fill="#CECDCD" d="M239.1,270.2c0,0.3,0.1,0.7,0.1,1c0.2,0.3,0.2,0.6,0.1,0.9c-0.4,0.3-0.5,0.9-1.1,1c0-0.6,0-1.3,0-1.9
			C238.5,270.9,237.9,269.7,239.1,270.2z"/>
		<path fill="#EAEAE9" d="M236.3,283.2c0-0.4,0-0.7,0-1.1c-0.1-0.7,0.3-0.9,0.9-0.8c0.1,0,0.1,0.1,0.2,0.1c0.2,0.3,0.2,0.6,0.2,0.9
			c0,0.3,0,0.7-0.3,0.9C236.9,283.5,236.6,283.4,236.3,283.2z"/>
		<path fill="#EAEAEA" d="M239.1,270.2c-0.8-0.1-0.5,0.7-0.9,1c0.3-0.7-0.7-1.9,0.9-1.9C239.1,269.6,239.1,269.9,239.1,270.2z"/>
		<path fill="#ABAAAB" d="M238.2,273.1c0.3-0.3,0.1-1.1,0.9-1c0.3,0.3,0.3,0.7,0.2,1.1c-0.3,0.4-0.6,0.7-0.9,1.1c-0.1,0-0.1,0-0.2,0
			C238.2,273.9,238.2,273.5,238.2,273.1z"/>
		<path fill="#AEAEAE" d="M237.3,279.4c0-0.4,0-0.8,0-1.2c0.3-0.3,0.6-0.3,0.9,0l0.1,0c0.3,0.4,0.3,0.8,0,1.2
			C237.9,279.6,237.6,279.6,237.3,279.4z"/>
		<path fill="#ABAAAA" d="M236.2,285.1c0-0.3,0-0.6,0.1-0.9c0.3-0.3,0.6-0.3,1,0c0.3,0.3,0.3,0.7,0.1,1c-0.3,0.3-0.6,0.3-1,0.1
			C236.3,285.1,236.3,285.1,236.2,285.1z"/>
		<path fill="#D0D0D0" d="M237.2,284.1c-0.3,0-0.6,0-0.9,0c0-0.3,0-0.6,0-1c0.3,0,0.6,0,0.9,0c0.3,0.2,0.3,0.5,0.1,0.8
			C237.3,284.1,237.3,284.1,237.2,284.1z"/>
		<path fill="#D1D2D2" d="M225.2,288.2c0-0.7,0.3-1,1-0.9c0.2,0.3,0.3,0.6,0,1c-0.3,0.2-0.7,0.2-1,0
			C225.3,288.2,225.2,288.2,225.2,288.2z"/>
		<path fill="#B5B5B5" d="M226.2,288.2c0-0.3,0-0.6,0-0.9c0.3,0,0.6,0,0.9-0.1c0,0.1,0.1,0.1,0.1,0.2c0.1,0.3,0.1,0.7-0.2,1
			C226.8,288.5,226.5,288.5,226.2,288.2z"/>
		<path fill="#C5C4C4" d="M238.1,278.2c-0.3,0-0.6,0-0.9,0c0-0.3,0-0.6,0-1c0.3-0.3,0.6-0.3,0.9,0
			C238.2,277.5,238.1,277.8,238.1,278.2z"/>
		<path fill="#E0E0DF" d="M238.2,277.2c-0.3,0-0.6,0-0.9,0c-0.1-0.7,0.1-1.1,0.9-1C238.2,276.6,238.2,276.9,238.2,277.2z"/>
		<path fill="#7E7E7E" d="M237.2,281.3c0-0.3,0.1-0.6,0.1-1c0.3-0.3,0.6-0.3,1-0.1c0.2,0.3,0.2,0.7,0,1
			C237.9,281.6,237.6,281.5,237.2,281.3L237.2,281.3z"/>
		<path fill="#989898" d="M238.2,280.3c-0.3,0-0.6,0-0.9,0c0-0.3,0-0.6,0-1c0.3,0,0.6,0,0.9,0C238.5,279.7,238.5,280,238.2,280.3z"
			/>
		<path fill="#A1A1A1" d="M240.2,264.3c0-0.3-0.1-0.7-0.1-1c0.2-0.7-0.1-1.5,0.3-2.2c0,0,0.1,0.1,0.1,0.1c0.2,0.3,0.2,0.7,0.2,1.1
			c0,0.3,0,0.6,0,0.9c0,0.3,0,0.6-0.1,0.9c0,0.1-0.1,0.2-0.2,0.3C240.3,264.3,240.2,264.3,240.2,264.3z"/>
		<path fill="#C5C5C5" d="M230.3,286.3c0.1,0.8-0.5,0.7-1,0.7C229.3,286.3,229.8,286.3,230.3,286.3z"/>
		<path fill="#A1A1A1" d="M240.3,260.4c0.6-0.1,0.9,0.1,0.8,0.7c0,0-0.1,0.1-0.1,0.1c-0.2,0.1-0.4,0.1-0.6-0.1c0,0-0.1,0-0.1,0
			C240.3,260.9,240.3,260.7,240.3,260.4z"/>
		<path fill="#C5C5C5" d="M229.3,287c0,0.1,0,0.1,0,0.2c0,0-0.1,0.1-0.1,0.1c-0.3,0.2-0.7,0.2-1.1,0.2c-0.3,0-0.6,0-0.9-0.2
			c0,0,0-0.1,0-0.1C227.8,286.9,228.6,287.1,229.3,287z"/>
		<path fill="#DDDCDC" d="M459.3,251c0.3,0,0.6,0,0.9,0c0,12,0,23.9,0,35.9c0,0.7,0.2,1.5-0.9,1.3c0-7.4,0-14.8,0-22.1
			C459.2,261.1,459.3,256.1,459.3,251z"/>
		<path fill="#818181" d="M504.1,291.4c0,0.3,0,0.6-0.1,0.9c-10.3,0-20.6,0-30.9,0c0-0.2,0-0.3,0.2-0.4c0.5-0.2,1.1-0.2,1.7-0.2
			c8.8,0,17.6,0,26.4,0c0.6,0,1.2,0.2,1.7-0.4C503.4,291.1,503.8,291.1,504.1,291.4z"/>
		<path fill="#646463" d="M471.3,291.3c0-0.1,0-0.1-0.1-0.2c-0.2-0.2-0.2-0.5-0.1-0.7c0.6-0.5,1-0.1,1.5,0.3
			c0.3,0.1,0.6,0.2,0.8,0.4c0.1,0.1,0.1,0.2,0,0.3c-0.1,0.1-0.2,0.1-0.3,0.2c-0.3,0.1-0.6,0.1-1,0.1
			C471.8,291.6,471.5,291.6,471.3,291.3z"/>
		<path fill="#9E9D9D" d="M472.2,291.4c0.3,0,0.6,0,0.9,0c0.2,0.2,0.3,0.4,0.1,0.7c0,0.1,0,0.1,0,0.2c-0.3,0-0.6,0-0.9,0
			C471.9,292,472,291.7,472.2,291.4z"/>
		<path fill="#9E9E9E" d="M459.2,289.2c0.1,0.7-0.1,1.1-0.9,1c-0.1,0-0.1-0.1-0.2-0.1c-0.2-0.3-0.2-0.7,0.1-0.9
			C458.6,288.9,458.9,288.9,459.2,289.2z"/>
		<path fill="#C8C8C9" d="M471.3,290.4c0,0.2,0,0.5-0.1,0.7c-0.7,0.1-1-0.2-1-0.9c0,0,0-0.1,0-0.1c0.3-0.2,0.6-0.2,0.9-0.1
			C471.3,290.1,471.3,290.3,471.3,290.4z"/>
		<path fill="#666666" d="M459.2,289.2c-0.3,0-0.6,0-0.9,0c-0.3-0.3-0.3-0.7,0-1c0.3,0,0.6,0,0.9,0
			C459.2,288.5,459.2,288.9,459.2,289.2z"/>
		<path fill="#E1E1E0" d="M472.2,291.4c0,0.3,0,0.6,0.1,0.9c-0.8,0.2-1.1-0.2-1-1C471.6,291.3,471.9,291.3,472.2,291.4z"/>
		<path fill="#858484" d="M458.3,290.2c0,0.1-0.1,0.1-0.1,0.2c-0.2,0.4-0.1,1.1-0.9,0.7c0,0-0.1,0-0.1,0c-0.3-0.6-0.1-1.1,0.6-1.1
			c0.1,0,0.3,0.1,0.4,0.2C458.3,290.1,458.3,290.2,458.3,290.2z"/>
		<path fill="#CFCECE" d="M469.3,223.2c0.2,0,0.5,0,0.7,0c0,0.5,0.1,1-0.7,1C469.3,223.9,469.3,223.5,469.3,223.2z"/>
		<path fill="#C8C8C8" d="M469.3,288.2c0.8,0,0.7,0.5,0.7,1C469.3,289.3,469.3,288.7,469.3,288.2z"/>
		<path fill="#B7B6B6" d="M457.4,291.1c0.6,0.1,0.7-0.4,0.9-0.7c0.2,0.8-0.2,1.1-1,0.9C457.3,291.3,457.3,291.2,457.4,291.1z"/>
		<path fill="#F3F3F3" d="M177.3,63.1c-0.4-0.1-1,0.1-1-0.5c0-0.6,0.5-0.7,0.9-0.7c0.4,0,0.9,0.1,0.9,0.7
			C178.1,63.3,177.6,63,177.3,63.1z"/>
		<path fill="#404040" d="M458.2,290.1c-0.1,0-0.1,0-0.2,0c-0.5-0.6-0.1-1.6-0.9-2c-0.2-0.7-0.2-1.5,0.1-2.2
			c0.3-0.3,0.4-0.6,0.4-1.1c0-0.5,0-1,0-1.4c0-46.7,0-93.4,0-140.1c0-0.7-0.2-1.4,0.4-2c0.1,0,0.1,0,0.2,0c0,0.3,0.1,0.6,0.1,0.9
			c0,1,0,2,0,3c0,47.6,0,95.3,0,142.9c0,0.3,0,0.7,0,1C458.3,289.5,458.2,289.8,458.2,290.1z"/>
		<path fill="#424242" d="M457.3,286.1c0,0.7,0,1.4,0,2.2c0.5,1.3,0.1,2-1.2,2.2c-0.7,0.1-1.4,0.1-2,0.1c-35.7,0-71.5,0-107.2,0
			c-0.9,0-1.9-0.3-2.6,0.5c-0.3,0-0.6,0-0.9,0c-0.1-0.4,0.1-0.9-0.6-0.9c-0.6,0-0.3-0.6-0.4-0.9c0.8-0.6,0.6-1.4,0.6-2.2
			c0-8.5,0-17.1,0-25.6c0-0.4,0.1-0.7-0.1-1.2c-0.1,0.6-0.1,1.1-0.1,1.6c0,8.5,0,16.9,0,25.4c0,0.7,0.1,1.5-0.4,2.1
			c-0.1,0-0.1-0.1-0.2-0.1c0-9.7,0-19.3,0-29c-0.3-0.4-0.6-0.7-1-0.9l0,0c-0.6-0.8-1.4-0.6-2.2-0.6c-7.7,0-15.5,0-23.2,0
			c-2.9,0-5.7,0-8.6,0c-0.6,0-1.3-0.2-1.6,0.6c-0.5,0.9-0.2,1.9-0.2,2.8c0.2,0.4,0,0.8,0.2,1.2c0.2,1-0.1,2.2,0.8,3c0,0.7,0,1.3,0,2
			c-0.1,1.4,0,2.7,0.9,3.9c0.2,0.2,0.1,0.5,0.1,0.8c-1.1,1.3-0.7,2.8-0.5,4.3c0.2-0.3,0-0.7,0.3-0.9c0.1-0.1,0.2-0.1,0.3-0.1
			c0.4,0.2,0.4,0.8,0.8,1c0.1,0.1,0.1,0.2,0.2,0.3c0,0.5,0,1.1,0.1,1.6c0,0.4,0,0.8,0,1.2c0,0.3,0,0.6,0,1c0,0.3,0,0.6,0,1
			c0.3,0.6-0.8,1.9,0.9,1.9c0,0.3,0.1,0.6,0.1,1c0,0.1,0,0.2,0,0.2c0.4,0.8,1.2,0.9,1.9,0.9c0.4,0,0.8,0.1,1.1,0.1
			c0.4,0.6,1.1,0.6,1.7,0.7c0.2,0.1,0.3,0.1,0.5,0.1c0.5,0,1.1,0.1,1.6,0.1c0.3,0.4,0.6,0.7,1.1,0.6c0.4,0,0.7,0.1,1,0.3
			c0.3,0,0.6,0,1,0c0.3,0,0.6,0,1,0l0,0.1c0.3,0.3,0.6,0.7,0.9,0.9c0,0.3,0,0.6,0,1c-0.6,0.5-1.4,0.4-2.1,0.4c-7.8,0-15.6,0-23.4,0
			c-22.7,0-45.4,0-68.2,0c-0.8,0-1.6,0.2-2.3-0.4c0-0.6,0-1.3,0-1.9c0.3,0,0.6,0,0.9-0.1c0.3,0,0.6,0,0.9,0c0.2-0.2,0.5-0.3,0.8-0.3
			c0.6,0.1,1-0.2,1.3-0.6c0,0,0-0.1,0-0.1c0.6,0,1.3,0,1.9,0c0.8,0,1.6-0.3,2.2-0.9c0.6,0,1.2-0.1,1.8-0.1c0.9-0.1,1.6-0.3,2-1.2
			c0-0.3,0-0.6,0-1l0.1,0c0.7-0.5,0.6-1.3,0.6-2c0-0.3,0.1-0.6,0.3-0.9c0-0.3,0-0.6,0-1c0-0.3,0-0.6,0-1c0-0.4,0.1-0.8,0.1-1.2
			c0.3-0.3,0.1-0.6,0.2-0.9c0.2-0.2,0.3-0.4,0.5-0.5c0.4-0.3,0.3-0.8,0.3-1.2c0.1-0.7-0.1-1.3-0.1-2c-0.1-1.4,0.8-2.6,0.9-3.9
			c0.1-0.4,0.1-0.9,0.1-1.3c0.1-1.3-0.1-2.7,0.1-4l0,0c0.3-0.2,0.4-0.6,0.4-0.9c0-0.3,0-0.5,0.1-0.8c0-0.1,0-0.2,0.1-0.3
			c0.1-0.4,0.1-0.8,0.3-1.1c0-0.3,0-0.6,0-0.9c-0.2-0.3-0.1-0.8-0.3-1.1c-0.1-0.3-0.4-0.4-0.6-0.4c-0.4-0.1-0.9-0.1-1.3-0.1
			c-33.1,0-66.3,0-99.4,0c-0.8,0-1.6-0.2-2.3,0.5l-0.1,0l-0.1,0c-0.3-0.3-0.6-0.7-1.1-0.6c-0.3,0-0.6-0.1-0.8-0.3l0,0
			c-0.3-0.4-0.6-0.7-1-0.9l0,0c-0.1-0.2,0-0.3,0.1-0.4c0.4-0.3,0.5-0.7,0.1-1.1c-0.6-0.6-0.6-1.4-0.6-2.1c0-0.6,0-1.1,0-1.7
			c0-59.9,0-119.9,0-179.8c0-0.9,0.2-1.9-0.6-2.7c0-0.4,0-0.7,0-1.1c0.8,0.1,0.9-0.4,1-1c0.7,0.1,1-0.2,0.9-1c0.3,0,0.6,0,0.9-0.1
			c0.4-0.2,0.7-0.6,1-0.9c0.4,0,0.8,0,1.2,0c0.3,0.4,0.7,0.5,1.2,0.5c0.5,0,1,0,1.6,0c88.1,0,176.2,0,264.3,0c0.9,0,1.9,0.3,2.7-0.5
			c0.1,0,0.2,0,0.2,0c0.3,0.3,0.6,0.7,1,0.9l0,0c0.3,0.5,0.6,0.6,1,0.1l0-0.1c0.3,0,0.6,0,0.9,0.1c-0.1,0.7,0.2,1.1,0.9,1
			c0,0.3,0.1,0.6,0.1,0.9c-0.1,0.7,0.1,1.1,0.9,1c0,0.1,0,0.1,0,0.2c-0.4,0.3-0.5,0.7-0.5,1.2c0,0.4,0,0.9,0,1.3
			c0,21.6,0,43.2,0,64.8c0,0.4,0,0.9,0,1.3c0,0.4,0.1,0.8,0.6,0.9c1.6,0.9,3.3,0.9,5,0.9c11.6,0,23.2,0,34.9,0
			c0.7,0,1.4-0.1,2.1,0.3c0,0.6-0.5,0.6-0.9,0.6c-0.5,0.1-1,0-1.6,0c-12,0-24.1,0-36.1,0c-0.4,0-0.9,0-1.3,0.1
			c0.6,0.2,1.2,0.1,1.8,0.1c12.3,0,24.6,0,36.8,0c0.5,0,1,0,1.6,0c1.3,0.1,2,0.9,2.2,2.2c0,0.4,0,0.7,0,1.1c0,46.6,0,93.3,0,139.9
			C457.7,284.8,457.8,285.5,457.3,286.1z"/>
		<path fill="#393939" d="M344.3,291.1c-0.1-0.6,0.1-1,0.8-0.9c0.3,0,0.6,0,1,0c36.4,0,72.8,0,109.2,0c1.9,0,2-0.1,2-1.9
			c1.4,0.2,0.5,1.3,0.7,1.9c-0.7,0-0.8,0.4-0.8,1c-0.4,0-0.7,0-1.1,0c-0.4,0.2-0.9,0.1-1.3,0.1c-36.1,0-72.2,0-108.3,0
			c-0.4,0-0.9,0.1-1.3-0.1C344.9,291.1,344.6,291.1,344.3,291.1z"/>
		<path fill="#424242" d="M345.2,291.1c0.2,0,0.4,0,0.6,0c36.7,0,73.3,0,110,0c0.1,0,0.2,0,0.4,0c-0.5,0.4-1,0.2-1.5,0.2
			c-36.1,0-72.2,0-108.3,0C346,291.3,345.5,291.5,345.2,291.1z"/>
		<path fill="#393939" d="M225.3,290.2c32,0,64,0,95.9,0c0,0.4,0,0.8,0,1.2c-32,0-63.9,0-95.9,0
			C225.3,290.9,225.3,290.6,225.3,290.2z"/>
		<path fill="#343434" d="M408.1,65.3c0.1,0.6-0.1,1-0.8,0.9c-0.2,0-0.5,0-0.7,0c-88.9,0-177.8,0-266.7,0c-0.6,0-1.7,0.4-1.5-0.9
			c0.4,0,0.9,0,1.3,0c89,0,178,0,267,0C407.2,65.2,407.6,65.3,408.1,65.3z"/>
		<path fill="#B7B6B6" d="M150.8,64.3c13.4,0,26.7,0,40.1,0c72,0,143.9,0,215.9,0c0.6,0,1.5-0.5,1.6,0.7c-0.7,0-1.4,0-2.2,0
			c-84.6,0-169.2,0-253.8,0C151.9,65,150.9,65.5,150.8,64.3z"/>
		<path fill="#4D4D4D" d="M409.3,66.2c-0.7,0.1-1.1-0.2-1-0.9c0.3,0,0.6,0,0.9,0C409.3,65.6,409.3,65.9,409.3,66.2z"/>
		<path fill="#6D6D6D" d="M137.2,65.3c0.1,0.8-0.3,1-1,0.9c0-0.3,0.1-0.6,0.1-0.9C136.6,65.3,136.9,65.3,137.2,65.3z"/>
		<path fill="#EBEBEB" d="M136.2,65.1c-0.1-0.8,0.4-0.8,1-0.7C137.3,65.1,136.7,65.1,136.2,65.1z"/>
		<path fill="#737373" d="M413.2,70.1c0.1,0.1,0.1,0.2,0.2,0.3c0.3,0.3,0.4,0.7,0.7,1c0,1.4,0.1,2.7,0.1,4.1c0,20.6,0,41.2,0,61.9
			c0,0.4-0.1,0.7,0.1,1.1c0,0.3,0,0.6,0,0.9c-1.1,0.4-1.3-0.4-1.5-1.2c-0.1-0.7-0.1-1.4-0.1-2c0-21.2,0-42.5,0-63.7
			C412.8,71.6,412.6,70.7,413.2,70.1z"/>
		<path fill="#4F4F4F" d="M413.2,138.2c0.2,0.5,0.3,1.2,1.2,1c13.2,0,26.5,0,39.7,0c0.7,0,1.4,0,2,0c0.2,0.3,0.2,0.7,0.3,1.1
			c-0.5,0.2-0.9,0.1-1.2-0.2c-12.4,0-24.8,0-37.2,0c-1.7,0-3.3,0.2-4.8-1C412.9,138.9,412.9,138.5,413.2,138.2z"/>
		<path fill="#383938" d="M305.4,259.2c-0.5-0.6-0.4-0.9,0.4-1c0.2,0,0.4,0,0.6,0c11.1,0,22.3,0,33.4,0c0.7,0,1.4-0.1,1.3,1
			C329.3,259.2,317.3,259.2,305.4,259.2z"/>
		<path fill="#666666" d="M305.2,263.3c0-0.4,0-0.8,0-1.2c0.1,0,0.1,0,0.2,0.1c-0.2,0.9,1.2,1.2,0.7,2.1
			C304.9,264.7,305.5,263.6,305.2,263.3z"/>
		<path fill="#686868" d="M341.1,259.3c0.8-0.2,1.1,0.1,1,0.9c-0.3,0-0.6,0-0.9-0.1C341.2,259.8,341.2,259.5,341.1,259.3z"/>
		<path fill="#808080" d="M414.1,71.3c-0.8,0.1-0.8-0.4-0.7-1c0.2,0,0.5,0,0.7,0C414.1,70.6,414.1,71,414.1,71.3z"/>
		<path fill="#535454" d="M321.2,289.2c-0.7,0.1-1-0.2-0.9-0.9c0.3,0,0.6,0,1,0C321.2,288.6,321.2,288.9,321.2,289.2z"/>
		<path fill="#6E6F6F" d="M318.4,288.2c-0.4,0-0.8,0-1.2,0c-0.3-0.3-0.3-0.6,0-0.9c0.4,0,0.8,0,1.2,0
			C318.4,287.6,318.4,287.9,318.4,288.2z"/>
		<path fill="#545453" d="M317.1,287.3c0,0.3,0,0.6,0,0.9c-0.8,0.1-1.1-0.2-1-0.9C316.5,287.3,316.8,287.3,317.1,287.3z"/>
		<path fill="#6A6A6A" d="M314.6,287.2c-0.2,0-0.4,0-0.5,0.1c-0.3-0.2-1.2,0-0.7-0.9c0.3,0,0.6,0,0.9,0
			C314.3,286.7,314.3,287,314.6,287.2z"/>
		<path fill="#464646" d="M307.1,273.1c0-0.2,0.1-0.5,0-0.6c-1.4-1.2-0.8-2.8-0.9-4.3c0.1,0,0.2,0,0.2,0.1c0,0,0,0,0,0
			c-0.4,1.2,0.5,1.9,0.9,2.9c0,0.3,0,0.6,0.1,1c0,0.4,0,0.8,0,1.2c0.2,0.3,0.2,0.6,0,1c0,0.3,0,0.6,0,1c0.2,0.3,0.3,0.7,0,1
			c-0.1,0-0.1,0-0.2,0C306.5,275.2,306.5,274.2,307.1,273.1z"/>
		<path fill="#7F7C7C" d="M306.3,268.3c-0.1,0-0.1,0-0.2-0.1c0-0.7,0-1.4-0.1-2.1c-0.2-0.3-0.3-0.7,0-1c0.1,0,0.1,0,0.2,0
			c0,0.4,0.1,0.8,0.1,1.2C306.4,267,306.4,267.7,306.3,268.3z"/>
		<path fill="#6A6A6A" d="M311.2,286.3c-0.7-0.2-2,0.8-1.9-0.9c0.8-0.3,1,1,1.9,0.8C311.2,286.2,311.2,286.2,311.2,286.3z"/>
		<path fill="#535353" d="M313.3,286.4c-0.1,0.6,0.5,0.6,0.7,0.9c-0.6-0.2-1.8,0.6-1.7-0.9C312.7,286.4,313,286.4,313.3,286.4z"/>
		<path fill="#616161" d="M307.3,276.2c0-0.3,0-0.7,0-1c1.3,0.3,0.5,1.3,0.7,1.9C307.2,277.3,307.3,276.7,307.3,276.2z"/>
		<path fill="#A2A2A2" d="M307.4,274.3c0-0.3,0-0.6,0-1c0.8-0.1,0.7,0.5,0.7,1C307.8,274.3,307.6,274.3,307.4,274.3z"/>
		<path fill="#535353" d="M306.1,265.2c0,0.3,0,0.7,0,1c-0.8,0-0.8-0.6-0.9-1.1c-0.1-0.6,0-1.2,0-1.8c0.4,0.3,0.1,1.1,0.9,1
			C306.1,264.6,306.1,264.9,306.1,265.2z"/>
		<path fill="#3E3F3F" d="M455.2,140.2c0.4,0,0.8,0,1.2,0.2c0.1,0,0.3,0,0.4,0c0.7,0,0.4,1.2,1.2,1c0,47.8,0,95.5,0,143.3
			c0,0.5,0.4,1.4-0.7,1.4c0-47.4,0-94.8,0-142.2c0-2.2-0.4-2.6-2.5-2.6c-13,0-26,0-39,0c-0.6,0-1.6,0.4-1.5-0.6c0-0.7,1-0.4,1.5-0.4
			c12.7,0,25.4,0,38,0C454.3,140.4,454.8,140.6,455.2,140.2z"/>
		<path fill="#3D3D3D" d="M413.2,138.2c0,0.3,0,0.7,0,1c-0.7,0.1-1-0.2-1-0.9c0.1-0.9,0-1.8,0-2.8c0-21.6,0-43.2,0-64.8
			c0-0.6-0.2-1.5,0.9-1.3c0,0.2,0.1,0.5,0.1,0.7c0,1.8,0,3.5,0,5.3C413.2,96.3,413.2,117.2,413.2,138.2z"/>
		<path fill="#343434" d="M410.3,66.3c0,0.4,0.1,0.9-0.5,0.8c-0.6-0.1-0.4-0.6-0.4-0.9C409.6,66.3,410,66.3,410.3,66.3z"/>
		<path fill="#A1A0A0" d="M506.3,223.2c0.3,0,0.6,0,0.9,0.1c0,7.2,0,14.5,0,21.7c0,14.7,0,29.5,0,44.2c-0.3,0-0.6,0-0.9,0
			c-0.4-0.3-0.3-0.7-0.4-1.1c0-17.5,0-35,0-52.4c0-3.8,0-7.6,0-11.4C506,223.9,506,223.5,506.3,223.2z"/>
		<path fill="#424242" d="M473.4,291.3c0-0.1,0-0.1,0-0.2c0.6-0.6,1.4-0.4,2.1-0.4c8.7,0,17.4,0,26.2,0c0.7,0,1.4,0.1,2.1-0.2
			c0.1-0.1,0.2-0.2,0.3-0.3c0.3-0.3,0.7-0.3,1.1-0.2c0.1,0,0.2,0.1,0.3,0.2c0,0.3-0.1,0.6-0.1,0.9c-0.4,0.1-0.8,0.2-1.1,0.3
			c-0.3,0-0.6,0-1,0c-0.4,0.4-1,0.3-1.5,0.3c-8.9,0-17.9,0-26.8,0C474.4,291.7,473.8,291.8,473.4,291.3z"/>
		<path fill="#5B5B5B" d="M506.2,288.2c0,0.3,0.1,0.7,0.1,1c0,0.3-0.1,0.6-0.1,0.9c-0.3,0-0.6,0-0.9,0c0,0-0.1,0-0.1,0
			c-0.2-0.3-0.2-0.6-0.1-0.9C505.6,289,505.7,288.4,506.2,288.2z"/>
		<path fill="#3A3B3B" d="M133.3,69.4c0.7-0.1,1,0.2,1,0.9c0,0.3,0,0.6,0,1c0,60.7,0,121.5,0,182.2c0,0.7-0.4,1.7,0.8,2.1
			c0.3,0.1,0.2,0.7,0.1,1.1c-0.1,0.5-0.6,0.3-0.9,0.4c-0.3-0.2-0.7-0.4-1-0.7c0,0,0,0,0,0c0-0.1,0-0.2,0-0.2
			c-0.1-0.6-0.3-1.2-0.3-1.8c-0.1-0.6-0.1-1.3-0.1-1.9c0-59.9,0-119.8,0-179.7c0-0.7-0.1-1.4,0.1-2.2
			C133.2,70.1,133.2,69.7,133.3,69.4L133.3,69.4z"/>
		<path fill="#5D5D5C" d="M133.3,70.3c0,0.7,0,1.4,0,2c0,60.4,0,120.8,0,181.3c0,0.3,0,0.6,0,0.8c-0.4,0.1-0.7,0-0.9-0.3
			c0-0.6-0.1-1.3-0.1-1.9c0-60,0-119.9,0-179.9c0-0.7,0.1-1.4,0.1-2C132.7,70.1,133,70.2,133.3,70.3z"/>
		<path fill="#EBEBEB" d="M132.1,99.8c-0.7-0.4-0.9-0.9-0.9-1.7c0-5.3,0-10.5,0-15.8c0-3.5,0-7,0-10.5c0-0.7,0-1.4,0.9-1.5
			C132.1,80.2,132.1,90,132.1,99.8z"/>
		<path fill="#848383" d="M132.4,254.2c0.3,0,0.7,0,0.9,0.3c0,0.6,0,1.1,0,1.7C133.3,255.3,132.1,255.1,132.4,254.2z"/>
		<path fill="#7E7D7D" d="M133.3,70.3c-0.3,0-0.6,0-0.9,0c0-0.1,0-0.2,0-0.2c0.6,0.1,0.7-0.4,0.9-0.7
			C133.3,69.7,133.3,70,133.3,70.3z"/>
		<path fill="#424242" d="M471.3,290.4c0-0.1-0.1-0.1-0.1-0.2c-0.2-0.4-0.6-0.7-0.9-1c0-4.4-0.1-8.8-0.1-13.2c0-16.8,0-33.6,0-50.4
			c0-0.8,0.1-1.6,0.1-2.4c0.3-0.3,0.7-0.3,1-0.1c0.3,0.2,0.5,0,0.7-0.3c0.3-0.9,1.1-1,1.8-1c9.6,0,19.2,0,28.8,0
			c1.6,0,2.7,1.1,2.8,2.7c0,0.3,0,0.6,0,1c0,20.6,0,41.1,0,61.7c0,1.3-0.2,2.3-1.3,3c-0.5,0.4-1,0.4-1.6,0.4
			c-3.5,0-7.1,0.2-10.6-0.1c-1.7-0.1-3.4,0.4-5-0.4c-0.1,0-0.2,0-0.2,0c-4.1,1.1-8.2,0.2-12.4,0.5c-0.7,0-1.4,0-1.9,0.6
			C472.2,290.7,471.9,290.2,471.3,290.4z"/>
		<path fill="#6B6B6B" d="M470.3,289.2c0.8-0.1,1,0.3,0.9,1c-0.3,0-0.6-0.1-0.9-0.1C470.3,289.8,470.3,289.5,470.3,289.2z"/>
		<path fill="#6F6F6F" d="M471.2,223.2c-0.3,0-0.6,0-0.9,0c0-0.3,0-0.6,0-0.9c0.3,0,0.6,0,0.9-0.1c0,0,0.1,0.1,0.1,0.1
			C471.5,222.6,471.5,222.9,471.2,223.2z"/>
		<path fill="#5C5C5C" d="M473.2,220.4c3.3,0,6.6-0.1,9.8-0.1c6.7,0,13.4,0,20.1,0.1c0.3,0.4,0.6,0.8,0,1.1
			c-0.5,0.2-1.1,0.2-1.7,0.2c-9.1,0-18.1,0-27.2,0c-0.5,0-1,0-1.5-0.1C471.8,220.8,473.1,220.8,473.2,220.4z"/>
		<path fill="#7A7A7A" d="M503.4,221.2c-0.2-0.3-0.3-0.6-0.3-0.9c0.3,0,0.7-0.2,1,0.2c-0.1,0.3,0.1,0.5,0.2,0.7c0,0-0.1,0.1-0.1,0.1
			C503.9,221.5,503.7,221.5,503.4,221.2z"/>
		<path fill="#858585" d="M473.2,220.4c0.1,0.6-0.4,0.7-0.8,0.9c0,0-0.1,0-0.1,0.1c0,0-0.1-0.1-0.1-0.1c0-0.3,0-0.5,0-0.8
			C472.6,220.4,472.9,220.4,473.2,220.4z"/>
		<path fill="#555555" d="M471.2,222.2c0-0.3,0-0.6,0.1-0.9c0.3,0,0.6-0.1,0.9-0.1c0,0,0,0.1,0,0.1c0.3,0.3,0.3,0.7,0,0.9
			c-0.3,0.2-0.6,0.2-0.9,0L471.2,222.2z"/>
		<path fill="#505050" d="M505.3,221.3c0,0.3,0,0.6,0.1,0.9c-0.1,0-0.1,0.1-0.2,0.1c-1,0.1-1.1-0.1-0.8-1l0-0.1
			C504.7,221.3,505,221.3,505.3,221.3z"/>
		<path fill="#5C5B5B" d="M506.3,223.2c0,0.3,0,0.7-0.1,1c-0.4,0-0.4-0.3-0.6-0.5c-0.4-0.4-0.8-0.8-0.4-1.4l0.1,0c0.3,0,0.6,0,0.9,0
			C506.2,222.6,506.3,222.9,506.3,223.2z"/>
		<path fill="#9B9B9B" d="M201.2,260.1c0-0.9,0.6-0.7,1.1-0.7c4.4,0,8.8,0,13.2,0c7.8,0,15.6,0,23.4,0c0.5,0,1.3-0.3,1.2,0.8
			c-0.7,0-1.4,0-2.2,0c-11.8,0-23.6,0-35.4,0C202.1,260.2,201.7,260.2,201.2,260.1z"/>
		<path fill="#606060" d="M136.2,258.3c0.7-0.1,1.1,0.1,1,0.9c-0.1,0.1-0.2,0.2-0.3,0.2c-0.3,0-0.6,0.1-0.7-0.2
			C136,258.9,135.9,258.6,136.2,258.3z"/>
		<path fill="#838383" d="M134.3,257.3c0.8-0.2,1.1,0.2,1,0.9C134.5,258.3,134.1,258.1,134.3,257.3z"/>
		<path fill="#A5A5A5" d="M136.2,258.3c0,0.3,0,0.6,0,1c-0.8,0.1-1-0.2-0.9-1C135.5,258.3,135.9,258.3,136.2,258.3z"/>
		<path fill="#8E8E8D" d="M133.3,256.3c0.6-0.1,1,0.1,1,0.7c0,0.1,0,0.2,0,0.3C133.5,257.3,133.1,257.1,133.3,256.3z"/>
		<path fill="#B1B1B1" d="M137.1,259.5c0.5,0,1.2-0.3,1.2,0.7C137.8,260.1,137.1,260.4,137.1,259.5z"/>
		<path fill="#3E3E3E" d="M137.4,259.2c-0.1-0.6,0.1-1,0.9-0.9c0.2,0,0.4,0,0.6,0c33.7,0,67.4,0,101,0c0.7,0,1.6-0.3,1.4,1
			c-0.3,0.2-0.7,0.1-1,0c-31.7,0-63.5,0-95.2,0C142.5,259.2,140,259.2,137.4,259.2z"/>
		<path fill="#454444" d="M240.3,259.2c0.3,0,0.7,0,1,0c0,0.3,0,0.7,0,1C241.1,259.7,240.8,259.4,240.3,259.2z"/>
		<path fill="#6B6B6B" d="M241.3,261.1c0,0.4,0.2,0.9-0.2,1.2c-0.3-0.4-0.3-0.8,0-1.2c0,0,0,0,0,0
			C241.2,261.1,241.2,261.1,241.3,261.1z"/>
		<path fill="#434343" d="M240.3,268.3c0,0.7,0,1.4,0,2c0,0.2,0,0.6-0.1,0.7c-1.5,1-0.7,2.5-0.9,3.8c-0.1,0.8,0.2,1.7-0.2,2.4
			c-0.3-0.3-0.3-0.7,0-1c0-0.6,0-1.3,0-1.9c-0.2-0.3-0.2-0.6,0-1c0-0.4,0-0.8,0-1.2c0-0.3,0-0.6,0.1-0.9c0-1.1,0.7-1.9,0.9-2.9
			C240.2,268.2,240.3,268.2,240.3,268.3z"/>
		<path fill="#6B6B6B" d="M240.3,268.3c-0.1,0-0.1,0-0.2,0.1c0-0.7,0-1.5,0-2.2c0-0.6,0-1.3,0-1.9c0.1,0,0.1,0,0.2,0
			C240.4,265.6,240.3,266.9,240.3,268.3z"/>
		<path fill="#5D5D5D" d="M237.2,285.1c0,1.3,0,1.3-2,1.2c0.6-0.2,0.8-0.6,1.1-1.1C236.6,285.2,236.9,285.1,237.2,285.1z"/>
		<path fill="#616261" d="M233.4,286.4c-0.2,1.5-1.4,0.7-2.2,0.9c0.3-0.3,1.1-0.1,1.1-0.9C232.6,286.4,233,286.4,233.4,286.4z"/>
		<path fill="#575757" d="M239.1,276.2c0,0.3,0,0.7,0,1c-0.2,0-0.5,0-0.7,0C238.4,276.7,238.4,276.2,239.1,276.2z"/>
		<path fill="#8D8D8C" d="M239.1,273.3c0,0.3,0,0.6,0,1c-0.2,0-0.5,0-0.7,0C238.4,273.8,238.4,273.3,239.1,273.3z"/>
		<path fill="#525252" d="M238.2,282.2c-0.3,0.7,0.7,1.9-0.9,1.9c0-0.3,0-0.7-0.1-1c0-0.3,0.1-0.6,0.1-0.9
			C237.6,282,237.9,282,238.2,282.2z"/>
		<path fill="#656565" d="M238.2,282.2c-0.3,0-0.6,0-0.9,0c0-0.3,0-0.7,0-1c0.3,0,0.6,0,0.9,0C238.2,281.6,238.2,281.9,238.2,282.2z
			"/>
		<path fill="#8B8B8B" d="M228.1,288.2c-0.3,0-0.6,0-1,0c0-0.3,0-0.6,0-0.9c0.3,0,0.6,0,1,0C228.4,287.6,228.4,287.9,228.1,288.2z"
			/>
		<path fill="#9B9B9B" d="M241.1,261.1c0,0.4,0,0.8,0,1.2c0,0,0,0,0,0c-0.2,0.2-0.5,0.2-0.7,0c0-0.4,0-0.8,0-1.2
			C240.6,261.1,240.9,261.1,241.1,261.1z"/>
		<path fill="#6B6B6B" d="M240.4,262.3c0.2,0,0.5,0,0.7,0c0,0.3,0,0.6,0,1c-0.2,0.2-0.5,0.2-0.7,0
			C240.4,263,240.4,262.7,240.4,262.3z"/>
		<path fill="#605E5E" d="M240.4,263.3c0.2,0,0.5,0,0.7,0c0,0.5,0.1,1-0.7,1C240.4,263.9,240.4,263.6,240.4,263.3z"/>
		<path fill="#6A6A6A" d="M228.1,288.2c0-0.3,0-0.6,0.1-0.9c0.4,0,0.8,0,1.2,0C229.5,288.3,228.8,288.3,228.1,288.2z"/>
		<path fill="#6C6C6C" d="M473.4,291.3c9.9,0,19.8,0,29.8,0c0,1-0.7,0.7-1.2,0.7c-6.9,0-13.8,0-20.7,0c-2.7,0-5.4,0-8,0
			c0-0.2-0.1-0.4-0.1-0.7C473.2,291.4,473.3,291.4,473.4,291.3z"/>
		<path fill="#393A39" d="M472.4,291.1c-0.1-0.9,0.4-1,1.1-1c3.8,0,7.6,0,11.4,0c0.5,0,1,0.2,1.3-0.5c0.2-0.4,0.7-0.3,1,0
			c0.7,0.8,1.4,0.8,2,0c0.2-0.3,0.6-0.3,0.7-0.1c0.4,0.9,1.2,0.6,1.9,0.6c4.1,0,8.1,0,12.2,0c0.2,1.1-0.6,1-1.3,1
			c-9.5,0-19,0-28.5,0c-0.3,0-0.6,0-1,0C473.1,291.1,472.8,291.1,472.4,291.1z"/>
		<path fill="#3C3C3B" d="M148.5,79.2c-0.5-0.6-0.3-0.9,0.5-1c0.3,0,0.6,0,0.8,0c82,0,164,0,246,0c0.6,0,1.7-0.4,1.5,0.9
			c-0.1,0.1-0.2,0.2-0.4,0.3c-0.8,0.2-1.6,0.1-2.4,0.1c-74.9,0-149.7,0-224.6,0c-6.7,0-13.4,0.1-20.1,0
			C149.3,79.5,148.8,79.6,148.5,79.2z"/>
		<path fill="#646565" d="M341.2,223.2c-53.9,0-107.8,0-161.6,0c-10,0-20,0-30,0c-0.7,0-1.4,0.2-1.4-0.9c0.1-0.1,0.1-0.1,0.2-0.2
			c0.3-0.2,0.7-0.2,1.1-0.2c9.3,0,18.5-0.1,27.8,0c0.8-0.1,1.7,0,2.5,0c52.8,0,105.6,0,158.5,0c0.8,0,1.7-0.1,2.5,0.1
			c0.2,0,0.3,0.1,0.4,0.2C341.4,222.5,341.4,222.8,341.2,223.2z"/>
		<path fill="#3E3E3E" d="M244.9,223.4c31.8,0,63.5,0,95.3,0c0.5,0,1.3-0.3,1.3,0.3c0,0.6-0.8,0.4-1.3,0.4c-63.5,0-127.1,0-190.6,0
			c-0.1,0-0.2,0-0.4,0c-0.3,0-0.9,0.2-0.8-0.4c0-0.5,0.5-0.3,0.9-0.3c0.5,0,1,0,1.6,0C182.1,223.4,213.5,223.4,244.9,223.4z"/>
		<path fill="#5A5A5A" d="M147.2,80.2c0.3,0,0.6,0,0.9,0c0.1,0.1,0.2,0.2,0.3,0.4c0.2,0.6,0.1,1.2,0.1,1.8c0,45.9,0,91.9,0,137.8
			c0,0.7,0.1,1.4-0.3,2.1c0,0-0.1,0-0.1,0.1c-0.3,0-0.6,0-0.9,0c-0.3-0.4-0.4-0.8-0.4-1.2c0-0.4,0-0.9,0-1.3c0-45.7,0-91.3,0-137
			C146.9,81.9,146.6,80.9,147.2,80.2z"/>
		<path fill="#3E3E3E" d="M147.2,80.2c0,47.4,0,94.7,0,142.1c-0.7,0.1-1.1-0.2-1-0.9c0-0.2,0-0.3,0-0.5c0-46.4,0-92.8,0-139.2
			C146.3,80.9,146,80,147.2,80.2z"/>
		<path fill="#383938" d="M447.2,151.2c0.7-0.1,1.1,0.2,1,0.9c0,0.2,0,0.3,0,0.5c0,40.4,0,80.8,0,121.3c0,0.7,0.3,1.6-1,1.4
			c-0.3-0.3-0.3-0.7-0.3-1.1c-0.1-0.5,0-1,0-1.6c0-39.6,0-79.1,0-118.7c0-0.5,0-1,0-1.6C446.9,151.9,446.9,151.5,447.2,151.2z"/>
		<path fill="#3E3E3E" d="M353.2,213.5c0,20.1,0,40.2,0,60.3c0,0.5,0.4,1.4-0.4,1.4c-0.9,0-0.5-0.9-0.5-1.4c0-40.1,0-80.1,0-120.2
			c0-0.2,0-0.3,0-0.5c0-0.5,0-1.2,0.7-1.2c0.6,0,0.3,0.7,0.3,1.1C353.2,173.2,353.2,193.3,353.2,213.5z"/>
		<path fill="#4D4C4D" d="M354.4,275.2c-0.8-0.1-1.1-0.5-1.1-1.4c0-40.1,0-80.2,0-120.3c0-1,0.9-1.5,1-2.4c0,0.1,0.1,0.1,0.1,0.2
			c0.2,0.4,0.2,0.7,0.2,1.1c0,0.7,0,1.4,0,2.2c0,39.2,0,78.4,0,117.6c0,0.6,0,1.3,0,1.9C354.7,274.5,354.7,274.9,354.4,275.2z"/>
		<path fill="#3A3A39" d="M354.4,151.2c-0.1-0.6,0.1-1,0.8-0.9c0.2,0,0.3,0,0.5,0c29.8,0,59.5,0,89.3,0c0.6,0,1.5-0.2,1.3,0.9
			c-0.1,0.1-0.1,0.1-0.2,0.2c-0.5,0.3-1,0.2-1.5,0.2c-29.6,0-59.1,0-88.7,0C355.4,151.5,354.8,151.6,354.4,151.2L354.4,151.2z"/>
		<path fill="#AFAFAF" d="M354.4,275.2c0-0.3,0-0.6-0.1-0.9c0.3-0.3,0.6-0.3,1-0.3c0.3,0,0.6,0,0.9,0c29.1,0,58.2,0,87.4,0
			c0.7,0,1.4,0,2.2,0c0.2,0,0.3,0.1,0.4,0.2c0.4,0.4,0.3,0.8-0.2,1.1C415.5,275.2,385,275.2,354.4,275.2z"/>
		<path fill="#3A3A3A" d="M343.3,142.3c0,26.1,0,52.2,0,78.3c0,0.5,0.4,1.5-0.4,1.5c-1,0-0.5-1-0.5-1.5c0-25.5,0-51.1,0-76.6
			c0-0.6,0-1.1,0-1.7c0,0,0.1-0.1,0.1-0.1c0.3-0.1,0.5-0.1,0.8,0C343.2,142.2,343.3,142.3,343.3,142.3z"/>
		<path fill="#949393" d="M342.2,142.4c0,26.1,0,52.2,0,78.3c0,0.5,0,1,0,1.6c-0.3,0.3-0.6,0.3-1,0.1l0-0.1c-0.3-0.3-0.3-0.7-0.3-1
			c0-0.2,0-0.3,0-0.5c0-24.8,0-49.5,0-74.3c0-1-0.1-2,0.1-3c0.2-0.5,0.2-1.2,1-1.3C342,142.2,342.1,142.3,342.2,142.4z"/>
		<path fill="#6D6C6D" d="M148.2,80.4c0-0.1,0-0.2-0.1-0.3c0.1-0.3,0.2-0.6,0.3-0.9c19.3,0,38.6,0,57.8,0c63.6,0,127.2,0,190.8,0
			c0.1,0.2,0,0.3-0.1,0.4c-0.7,0.3-1.4,0.2-2.1,0.2c-74.8,0-149.6,0-224.4,0c-0.7,0-1.5-0.2-2,0.5c-0.3,0.2-0.6,0.2-0.9,0.2
			c-4.6,0-9.2,0.1-13.8,0c-0.5-0.1-1-1-1.5-0.1c-0.6,0.2-1.2,0.2-1.8,0c-0.3-0.1-0.6-0.7-1-0.1C149,80.5,148.6,80.6,148.2,80.4z"/>
		<path fill="#373636" d="M398.3,80.2c1-0.2,1,0.5,0.9,1.2c0,7.6,0,15.3,0,22.9c0,11.2,0,22.4,0,33.7c0,0.6,0.2,1.5-0.9,1.3
			c-0.3-0.3-0.3-0.7-0.4-1.1c0-18.8,0-37.6,0-56.3c0-0.4,0-0.8,0.1-1.2C398.1,80.4,398.2,80.3,398.3,80.2z"/>
		<path fill="#3E3F3F" d="M343.3,140.4c17.8,0,35.7,0,53.5,0c0.5,0,1.3-0.4,1.3,0.4c0,0.8-0.9,0.5-1.4,0.5c-16.9,0-33.8,0-50.7,0
			c-0.7,0-1.6-0.4-1.9,0.8c0,0.1-0.5,0.1-0.8,0.1v0c-0.3-0.3-0.3-0.7-0.3-1.2C343,140.9,343.1,140.6,343.3,140.4z"/>
		<path fill="#4F4F4F" d="M398.3,138.2c0,0.3,0,0.6,0,1c-1.2,1.2-2.7,1-4.2,1c-16.3,0-32.6,0-48.9,0c-0.3,0-0.6,0-1,0
			c-0.3-0.4-0.2-0.7,0.1-1c0.3-0.2,0.7-0.2,1.1-0.2c0.2,0,0.3,0,0.5,0c17,0,34,0,51,0C397.5,139.1,397.7,138.3,398.3,138.2z"/>
		<path fill="#3B3B3A" d="M342.3,289.2c0-9.5,0-19,0.1-28.6c0-0.5-0.4-1.4,0.4-1.4c1,0,0.5,0.9,0.5,1.4c0,9.1,0,18.2,0,27.2
			C343.3,288.7,343.4,289.3,342.3,289.2C342.3,289.2,342.3,289.2,342.3,289.2z"/>
		<path fill="#3A3A3A" d="M273.3,248.4c0.7,0,1.4,0,2.2,0c0.2,0,0.5,0,0.6,0.3c0.1,0.3-0.2,0.4-0.5,0.4c-1.6,0.4-3.2,0.4-4.7,0
			c-0.2,0-0.4-0.1-0.4-0.3c0-0.3,0.2-0.4,0.5-0.4C271.7,248.4,272.5,248.4,273.3,248.4z"/>
		<path fill="#3B3B3B" d="M308,281.3c0,0.7,0,1.4,0,2.1c0,0.3,0,0.6-0.4,0.6c-0.3,0-0.3-0.3-0.3-0.5c0-1.5,0-3,0-4.5
			c0-0.2,0-0.5,0.3-0.5c0.4,0,0.4,0.3,0.4,0.6C308,279.8,308,280.6,308,281.3z"/>
		<path fill="#3A3A3A" d="M307.1,273.1c0,1,0,2.1,0,3.1c0,0.5,0,1,0,1.4c0,0.2-0.1,0.4-0.3,0.4c-0.2,0-0.4-0.2-0.4-0.4
			c0.1-1.3-0.6-2.6-0.1-3.9C306.5,273.4,306.5,273.1,307.1,273.1z"/>
		<path fill="#5A5A5A" d="M271.3,235.2c-0.1-1.1,0.7-1,1.3-0.9c0.6,0.1,1.7-0.5,1.6,0.9C273.3,235.8,272.3,235.7,271.3,235.2z"/>
		<path fill="#696969" d="M280.2,240.2c0,0.7,0,1.3,0,2c0,0.7-0.3,0.9-0.9,0.9c-0.1,0-0.1-0.1-0.2-0.1c-0.2-0.3-0.2-0.6-0.2-1
			c0-0.6-0.1-1.3,0.3-1.8C279.6,240,279.9,240,280.2,240.2z"/>
		<path fill="#A4A3A3" d="M274.2,248.1c-0.6,0-1.3,0-1.9,0c-0.2-0.4-0.9-0.3-1-0.8c0.1-0.1,0.1-0.2,0.3-0.3c1.1-0.3,2.3-0.2,3.4,0
			c0.1,0.1,0.2,0.1,0.3,0.3C275.1,247.8,274.4,247.7,274.2,248.1z"/>
		<path fill="#727272" d="M397.3,285.1c-0.1-0.8-1.2-1.2-1-2.2c0.2-0.7,1-0.9,1-1.7c0.1,0.1,0.2,0.2,0.2,0.3
			c0.1,0.3,0.1,0.6,0.1,0.9c0,0.7,0,1.3,0,2C397.6,284.7,397.5,285,397.3,285.1z"/>
		<path fill="#7A7979" d="M399.2,280.2c0-1.6,1.3-0.6,1.9-0.9c0.2,0.4,0.7,0.4,0.9,0.7c0,0.1,0,0.1,0,0.2c-0.2,0.2-0.4,0.3-0.7,0.3
			c-0.7,0-1.3,0.1-2-0.1C399.4,280.5,399.3,280.4,399.2,280.2z"/>
		<path fill="#8B8B8B" d="M266.3,242.2c0-0.6,0-1.3,0-1.9c0.3-0.3,0.7-0.3,1,0c0.4,0.6,0.4,1.3,0,1.9
			C267,242.4,266.6,242.4,266.3,242.2z"/>
		<path fill="#A8A8A8" d="M271.3,235.2c1,0,1.9,0,2.9,0c0.1,0,0.1,0.1,0.2,0.1c0.1,0.1,0,0.2-0.1,0.3c-0.1,0.1-0.2,0.1-0.3,0.1
			c-0.5,0.1-1.1,0-1.6,0.1c-0.5-0.1-0.8,0.3-1.2,0.6c-0.3,0.1-0.6,0.1-0.9-0.2c-0.2-0.3-0.2-0.7,0.1-0.9
			C270.7,235.2,271,235.2,271.3,235.2z"/>
		<path fill="#BABABA" d="M403.4,285.1c0,0.9-0.4,1.3-1.3,1.3c-0.1-0.1-0.2-0.2-0.2-0.3c-0.1-0.9,0.3-1.3,1.2-1.2
			C403.2,285,403.3,285,403.4,285.1z"/>
		<path fill="#908F8F" d="M402.1,286.4c0.1,0.6-0.1,0.9-0.7,0.9c-0.7,0-1.4,0-2.1,0c-0.1-0.1-0.1-0.2,0-0.3c0.6-0.4,1.5,0,1.9-0.8
			c0.3-0.1,0.6-0.1,0.9,0C402.1,286.3,402.1,286.3,402.1,286.4z"/>
		<path fill="#989898" d="M343.3,140.4c0,0.2,0,0.4,0,0.7c-0.4,0.4-0.6,0.8-1,1.2c0,0,0,0,0,0c-0.1,0-0.1,0-0.2,0.1
			c0,0-0.1-0.1-0.1-0.1c-0.2-0.3-0.2-0.6-0.2-0.9c0-0.8,0.2-1.5,1.2-1.4c0.1,0,0.2,0.1,0.3,0.2C343.3,140.3,343.3,140.3,343.3,140.4
			z"/>
		<path fill="#8B8B8B" d="M404.2,282.3c0,0.7,0,1.5,0,2.2c0,0.6-0.3,0.7-0.8,0.6c-0.1,0-0.1,0-0.2,0c-0.2-0.3-0.2-0.6,0-0.9
			c0.8-0.4,0.4-1.3,0.7-1.9C404,282.2,404.1,282.2,404.2,282.3z"/>
		<path fill="#515150" d="M398.3,80.2c0,0.1,0,0.2,0,0.3c-0.4,0.1-0.7,0-1-0.1c-0.1-0.1-0.2-0.1-0.3-0.2c-0.1-0.2-0.1-0.5,0.1-0.7
			c0-0.1,0-0.2,0-0.2c0.1,0,0.2,0,0.2,0C398.1,79.1,398.4,79.4,398.3,80.2z"/>
		<path fill="#CCCBCB" d="M276.2,236.1c0.3,0,0.6,0,0.9,0.1c0.4,0.2,0.5,0.5,0.4,0.9c0,0.1-0.1,0.2-0.2,0.3c-0.9,0-1.6-0.4-1.8-1.3
			C275.7,235.9,276,236,276.2,236.1z"/>
		<path fill="#727272" d="M266.3,242.2c0.3,0,0.6,0,0.9,0c0.3,0.2,0.3,0.6,0.3,0.9c0,0.1-0.1,0.2-0.2,0.3
			C266.2,243.5,266.2,242.9,266.3,242.2z"/>
		<path fill="#DEDEDE" d="M267.2,243.4c0-0.1,0-0.2,0.1-0.3c1.1-0.3,1.3-0.1,1,1.2c-0.3,0.3-0.7,0.3-1,0
			C267.3,244,267.2,243.7,267.2,243.4z"/>
		<path fill="#C1C0C0" d="M279.3,243.1c0,0.4-0.1,0.8-0.1,1.2c-0.3,0.3-0.6,0.3-1,0.1c-0.3-0.4-0.3-0.8,0-1.3
			C278.5,242.8,278.9,242.8,279.3,243.1L279.3,243.1z"/>
		<path fill="#545454" d="M270.4,235.2c0,0.3-0.1,0.6-0.1,0.9c0,0-0.1,0.1-0.1,0.1c-0.3,0.2-0.7,0.2-1,0c0,0-0.1-0.1-0.1-0.1
			C269.1,235.2,269.7,235.1,270.4,235.2z"/>
		<path fill="#9D9D9E" d="M276.2,236.1c-0.3,0-0.5,0.1-0.8,0.1c-0.1,0.1-0.2,0.1-0.3,0c-0.2-0.3-0.5-0.5-0.7-0.8c0-0.1,0-0.1,0-0.2
			C275.1,235.4,276.2,234.7,276.2,236.1z"/>
		<path fill="#6D6D6D" d="M268.1,237.3c0-0.6,0.1-1.3,1-1.2c0,0,0,0.1,0,0.1c0.2,0.3,0.2,0.5,0.1,0.8c-0.2,0.3-0.5,0.5-0.9,0.4
			C268.3,237.5,268.2,237.4,268.1,237.3z"/>
		<path fill="#595858" d="M275.1,247.4c0-0.1,0-0.1,0-0.2c0,0,0.1-0.1,0.1-0.1c0.3-0.2,0.6-0.2,0.9-0.1c0.1,0,0.2,0.1,0.2,0.2
			c-0.2,0.5-0.5,1.1-1.2,0.9C275,247.9,275,247.7,275.1,247.4z"/>
		<path fill="#5E5D5D" d="M271.3,247.2c0,0.1,0,0.1,0,0.2c0.2,0.2,0.2,0.5,0,0.7c-0.8,0.2-1-0.3-1.2-0.9c0-0.1,0.1-0.1,0.1-0.2
			c0.3-0.2,0.7-0.2,1,0C271.2,247.1,271.3,247.2,271.3,247.2z"/>
		<path fill="#8E8D8D" d="M278.3,245.3c0,0.7-0.2,1.1-1,1c0,0-0.1-0.1-0.1-0.1c-0.3-0.9,0.2-1.2,1-1.2
			C278.3,245.1,278.4,245.2,278.3,245.3z"/>
		<path fill="#A8A8A8" d="M269.1,246.3c-0.8,0.1-1-0.3-1-1c-0.1-0.1-0.1-0.2,0-0.3c0.7-0.1,1.2,0.2,1.1,1
			C269.3,246.1,269.2,246.2,269.1,246.3z"/>
		<path fill="#646464" d="M446,275.2c0.3-0.3,0.2-0.6,0.3-0.9c0.3-0.3,0.6-0.3,0.9,0c0,0.3,0,0.7,0,1
			C446.8,275.3,446.4,275.3,446,275.2z"/>
		<path fill="#5E5E5E" d="M277.3,237.1c-0.1-0.3,0-0.7-0.3-0.9c0.7-0.1,1.4,0,1.2,1C277.9,237.4,277.6,237.4,277.3,237.1z"/>
		<path fill="#A3A3A3" d="M344.3,139.3c0,0.3-0.1,0.6-0.1,0.9c-0.3,0-0.6,0-0.9,0.1c0,0-0.1-0.1-0.1-0.1
			C343.1,139,343.3,138.9,344.3,139.3z"/>
		<path fill="#686868" d="M399.3,287c0,0.1,0,0.1,0,0.2c-0.7,0.1-1.1-0.1-1-0.8c0-0.1,0.1-0.1,0.1-0.2c0.3-0.2,0.6-0.2,0.9,0.1
			C399.5,286.5,399.5,286.8,399.3,287z"/>
		<path fill="#7D7D7D" d="M398.3,286.4c-0.7-0.1-1.1-0.3-0.9-1.1c0.3-0.3,0.6-0.2,1,0c0.2,0.3,0.2,0.6,0,1
			C398.3,286.3,398.3,286.3,398.3,286.4z"/>
		<path fill="#909190" d="M270.1,247.3c-0.7,0-1-0.3-1-1l0.1-0.1c0.3-0.2,0.6-0.2,1,0c0.2,0.3,0.2,0.6,0,0.9
			C270.1,247.2,270.1,247.2,270.1,247.3z"/>
		<path fill="#717272" d="M278.3,245.3c0-0.1,0-0.2,0-0.3c-0.2-0.2-0.2-0.5,0-0.7c0.3,0,0.6,0,0.9,0
			C279.4,245,279,245.3,278.3,245.3z"/>
		<path fill="#8B8B8A" d="M268.2,245c0,0.1,0,0.2,0,0.3c-0.7,0-1.1-0.2-0.9-1c0.3,0,0.6,0,0.9,0C268.4,244.5,268.4,244.8,268.2,245z
			"/>
		<path fill="#515151" d="M341.2,222.3c0.3,0,0.6-0.1,1-0.1c0.1,0.8-0.2,1.1-1,1C341.2,222.9,341.2,222.6,341.2,222.3z"/>
		<path fill="#525252" d="M280.2,240.2c-0.3,0-0.6,0-0.9,0c0,0-0.1-0.1-0.1-0.1c-0.1-0.2-0.1-0.4-0.1-0.6c0-0.1,0.1-0.2,0.2-0.2
			C280.1,239.2,280.3,239.6,280.2,240.2z"/>
		<path fill="#606060" d="M267.2,240.2c-0.3,0-0.6,0-0.9,0c-0.1-0.7,0.1-1.1,0.9-1c0.1,0,0.1,0.1,0.2,0.1
			C267.5,239.7,267.5,240,267.2,240.2z"/>
		<path fill="#ABAAAA" d="M279.2,238.4c0,0.3,0,0.6,0.1,0.9l-0.1,0c-0.3,0.3-0.6,0.3-0.9,0.1c-0.3-0.3-0.3-0.6-0.2-0.9
			c0-0.1,0.1-0.2,0.2-0.3C278.7,238.1,279,238.1,279.2,238.4z"/>
		<path fill="#6B6B6B" d="M267.3,238.3c-0.1-0.7,0.1-1.1,0.9-1.1c0,0,0.1,0.1,0.1,0.1c0.3,0.3,0.3,0.7,0,1
			C267.9,238.6,267.6,238.6,267.3,238.3z"/>
		<path fill="#C4C3C3" d="M267.3,238.3c0.3,0,0.6,0,0.9-0.1c0.3,1.1,0.2,1.2-0.9,1l-0.1,0C267.2,239,267.2,238.7,267.3,238.3z"/>
		<path fill="#565656" d="M279.2,238.4c-0.3,0-0.6-0.1-0.9-0.1c-0.3-0.3-0.3-0.6,0-0.9C279.1,237.3,279.3,237.6,279.2,238.4z"/>
		<path fill="#C9C9C9" d="M398.3,280.3c0.3,0,0.6-0.1,1-0.1c0,0,0,0.1,0,0.1c0.3,0.3,0.3,0.7,0,0.9c-0.4,0.3-0.7,0.2-1-0.2
			C398,280.9,398.1,280.6,398.3,280.3z"/>
		<path fill="#818181" d="M402.3,280.4c0.8-0.2,1,0.2,1.1,0.9c0,0-0.1,0.1-0.1,0.1c-0.3,0.2-0.7,0.1-1-0.1
			C402.1,281,402.1,280.7,402.3,280.4z"/>
		<path fill="#6C6D6D" d="M404.2,282.3l-0.1,0l-0.1,0c-0.2,0.2-0.5,0.2-0.8,0c-0.2-0.3-0.2-0.6,0-1c0,0,0.1,0,0.1-0.1
			C404.2,281.2,404.4,281.6,404.2,282.3z"/>
		<path fill="#7F8080" d="M277.3,246.3c0,0.7-0.3,1-1,1c0,0,0-0.1,0-0.1c-0.3-0.3-0.2-0.6,0-0.9c0.3-0.2,0.6-0.2,1,0
			C277.3,246.2,277.3,246.2,277.3,246.3z"/>
		<path fill="#5F5F5F" d="M447.2,151.2c0,0.3,0,0.7,0,1c-0.2,0.2-0.5,0.2-0.8,0.1c-0.1-0.1-0.2-0.1-0.3-0.2
			c-0.1-0.3-0.1-0.6,0.1-0.8c0,0,0-0.1,0-0.1C446.6,151.2,446.9,151.2,447.2,151.2z"/>
		<path fill="#575757" d="M398.3,280.3c0,0.2,0,0.5,0,0.7c-0.1,0.1-0.1,0.3-0.3,0.4c-0.2,0.1-0.4,0-0.6-0.1c0,0,0-0.1,0-0.1
			C397.2,280.4,397.6,280.2,398.3,280.3z"/>
		<path fill="#D4D3D3" d="M402.3,280.4c0,0.3,0.1,0.6,0.1,0.9c-0.8,0.2-1.3,0.1-1-0.9c0.3,0,0.5-0.1,0.8-0.1
			C402.2,280.3,402.3,280.3,402.3,280.4z"/>
		<path fill="#D4D3D3" d="M398.3,285.4c-0.3,0-0.6-0.1-0.9-0.1c0-0.1,0-0.1-0.1-0.2c0-0.2,0.1-0.5,0.1-0.7
			C398.3,284.1,398.4,284.6,398.3,285.4z"/>
		<path fill="#818181" d="M275.1,247.4c0,0.2,0,0.5,0,0.7c-0.3,0-0.6,0-1,0C274.1,247.4,274.6,247.4,275.1,247.4z"/>
		<path fill="#848485" d="M271.3,248.1c0-0.2,0-0.5,0-0.7c0.5,0,1,0,1,0.7C272,248.1,271.7,248.1,271.3,248.1z"/>
		<path fill="#5C5B5B" d="M402.1,280.1c-0.5,0-1,0-0.9-0.7C401.7,279.3,402.2,279.3,402.1,280.1z"/>
		<path fill="#A2A0A0" d="M278.3,237.4c0,0.3,0,0.6,0,0.9c0,0-0.1,0.1-0.1,0.1c-0.1,0-0.2,0-0.3-0.1c-0.2-0.3-0.3-0.6-0.6-0.8
			c0,0-0.1-0.1-0.1-0.1c0-0.1,0-0.2,0-0.3c0.3,0,0.6,0.1,0.9,0.1C278.2,237.2,278.3,237.3,278.3,237.4z"/>
		<path fill="#363636" d="M506,223.4c0,0.3,0,0.5,0.2,0.7c0,14.3,0,28.6,0,42.8c0,7.1,0,14.2,0,21.2c-0.3,0.3-0.1,1.1-0.9,1
			c-0.2-0.4-0.1-0.8-0.1-1.2c0-21.2,0-42.3,0-63.5C505.2,224.1,504.8,223.1,506,223.4z"/>
		<path fill="#3D3E3E" d="M506,223.4c-0.4,0-0.7,0.1-0.7,0.6c0,0.2,0,0.4,0,0.6c0,21.5,0,43.1,0,64.6c0,0.3-0.1,0.6-0.1,0.9
			c-0.4,0-0.8,0-1.1,0c0-0.2,0-0.6,0.1-0.7c1.4-0.5,0.9-1.7,0.9-2.6c0-20.7,0-41.3,0-62c0-1.7-0.9-2.6-2.7-2.6c-9.5,0-19,0-28.5,0
			c-0.9,0-1.5,0.1-1.6,1.2c0,0.3,0,0.8-0.6,0.7c-0.6-0.1-0.4-0.6-0.5-0.9c0-0.3,0-0.6,0.1-0.9c0.7,0.1,1-0.2,0.9-0.9
			c0.1,0,0.1-0.1,0.2-0.1c10.3,0,20.7,0,31,0c0.3,0,0.6,0.1,0.9,0.1c-0.1,0.7,0.3,1,0.9,0.9C505.2,222.9,505.6,223.2,506,223.4z"/>
		<path fill="#807F7F" d="M502.4,231.1c0,0.1,0.1,0.1,0.1,0.2c-0.1,0.1-0.2,0.2-0.4,0.3c-0.5,0.2-1,0.1-1.5,0.1
			c-8.2,0-16.4,0-24.6,0c-0.5,0-1.1-0.2-1.3,0.5c-0.2,0.9,0,1.8,0,2.7c0,13.9,0,27.8,0,41.6c0,0.4,0,0.8,0,1.2
			c-0.1,0.5-0.2,1.1,0.1,1.6c0.4,0.5,1,0.3,1.5,0.3c8,0,16,0,23.9,0c0.7,0,1.4-0.1,2,0.3c0.1,0.1,0.1,0.3,0,0.4
			c-0.5,0.3-1.1,0.3-1.6,0.3c-8.2,0-16.5,0-24.7,0c-0.6,0-1.2,0.1-1.7-0.4c-0.4-0.2-0.7-0.6-0.9-1c-0.5-0.4-0.4-1-0.4-1.6
			c0-14.9,0-29.9,0-44.8c0-0.5-0.1-1.1,0.4-1.6c0.3-0.2,0.6-0.3,0.9-0.3c0.5-0.4,1-0.4,1.6-0.4c8.4,0,16.7,0,25.1,0
			C501.4,230.7,502,230.7,502.4,231.1z"/>
		<path fill="#383838" d="M473.2,231.4c0,16,0,32,0,47.9c-0.1,0.3,0.2,0.9-0.4,0.9c-0.5,0-0.5-0.5-0.5-0.9c0-0.1,0-0.2,0-0.4
			c0-15.6,0-31.1,0-46.7C472.2,231.7,472,230.8,473.2,231.4z"/>
		<path fill="#3D3D3D" d="M503.4,255.2c0-7.5,0-15,0-22.6c0-0.3,0-0.6,0-1c0-0.3,0.1-0.5,0.4-0.5c0.3,0,0.5,0.2,0.5,0.4
			c0.1,0.3,0.1,0.6,0.1,1c0,15.1,0,30.2,0,45.4c0,0.1,0,0.2,0,0.2c0,0.5,0.1,1.1-0.6,1.1c-0.7,0-0.4-0.7-0.4-1.1
			C503.4,270.5,503.4,262.9,503.4,255.2z"/>
		<path fill="#8D8D8D" d="M502.2,231.4c0.1,0,0.2,0,0.3,0c0.3,0,0.7,0,0.7,0.5c0,0.3,0,0.6,0,0.8c0,15.3,0,30.7,0,46
			c0,0.2,0,0.5,0,0.7c-0.3,0.3-0.7,0.3-1,0c-0.3-0.4-0.3-0.8-0.3-1.3c-0.1-1.7,0-3.3,0-5c-0.1-3.7,0-7.3,0-11c0-9.5,0-19,0-28.5
			c0-0.4,0-0.8,0-1.1C501.9,232,501.9,231.7,502.2,231.4z"/>
		<path fill="#393939" d="M474.1,280.3c9.4,0,18.7,0,28.1,0c0.2-0.1,0.3-0.1,0.5,0c-0.1,0.9-0.8,1-1.5,1c-3.3,0-6.6,0-9.9,0
			c-0.7,0-1.2,0.1-1.1,1c-0.3,0.3-0.6,0.3-1,0.3c-0.6,0-1.3,0.1-1.9-0.3c-0.3,0-0.7,0-0.8-0.1c-0.3-1.2-1.2-0.8-1.9-0.8
			c-3.1,0-6.2,0-9.2,0C474.7,281.3,474.1,281.3,474.1,280.3z"/>
		<path fill="#3C3C3C" d="M474.4,230.2c-0.5-0.6-0.3-1,0.5-1c0.8,0,1.7,0,2.5,0c8,0,16,0,24,0c0.3,0,0.6,0,0.8,0
			c0.4,0,0.9,0,0.9,0.5c0,0.7-0.6,0.4-0.9,0.4c-0.5,0.4-1,0.4-1.6,0.4c-8.2,0-16.4,0-24.7,0C475.4,230.5,474.8,230.6,474.4,230.2z"
			/>
		<path fill="#696969" d="M474.4,230.2c9.3,0,18.5,0,27.8,0c0.2,0.3,0.3,0.6,0.2,1c-9.4,0-18.9,0-28.3,0
			C474.1,230.8,474.2,230.5,474.4,230.2z"/>
		<path fill="#4E4E4E" d="M491.4,284.2c1.2,0.2,0.8,1.3,1,2c0.1,0.7-0.1,1.2-0.9,1.1C491.5,286.2,491.1,285.2,491.4,284.2z"/>
		<path fill="#D3D3D2" d="M486.4,288.3c-0.1,0-0.1-0.1-0.2-0.1c-0.4-0.4-0.8-0.7-0.9-1.3c0-0.4,0-0.7,0-1.1c0-0.5,0.3-0.7,0.8-0.6
			c0.7,0.8,0.7,1.7,0.5,2.7C486.5,288.1,486.5,288.2,486.4,288.3z"/>
		<path fill="#7D7D7D" d="M487.3,282.2c0.6,0,1.3,0,1.9,0c0.3,0.3,0.3,0.7,0,1c-0.7,0.3-1.3,0.4-1.9-0.1
			C487.3,282.9,487.3,282.6,487.3,282.2z"/>
		<path fill="#B4B4B4" d="M489.2,289.2c-0.6,0-1.3,0-1.9,0c-0.3-0.3-0.3-0.7,0-1c0.6-0.4,1.3-0.4,1.9,0
			C489.5,288.5,489.5,288.8,489.2,289.2z"/>
		<path fill="#B2B2B2" d="M486.1,285.3c-1.3,0.1-0.4,1.2-0.7,1.7c-0.1,0.1-0.2,0.1-0.2,0c0-0.9,0-1.7,0-2.6c0.3-0.5,0.6-1,1.2-1
			c0.2,0.2,0.2,0.5,0.2,0.7C486.5,284.6,486.5,285,486.1,285.3z"/>
		<path fill="#676666" d="M491.4,284.2c0.1,0.5-0.1,1,0.5,1.3c0.3,0.1,0.3,0.6-0.1,0.8c-0.5,0.2-0.4,0.6-0.4,1c-0.1,0-0.1,0-0.2,0
			c-0.1,0-0.1-0.1-0.2-0.1c-0.3-0.6-0.2-1.2-0.2-1.9c0-0.3,0-0.6,0.1-0.9c0-0.1,0.1-0.2,0.2-0.3
			C491.3,284.1,491.3,284.2,491.4,284.2z"/>
		<path fill="#CAC9C9" d="M486.4,284.2c0-0.2,0-0.5,0-0.7c-0.1-0.1-0.1-0.2,0-0.2c0.3,0,0.6,0,0.9-0.1c0.7,0,1.3,0,2,0
			c0,0.1,0,0.1,0.1,0.2c0,0.1-0.1,0.2-0.2,0.3c-0.6,0.2-1.3,0.1-1.8,0.6C487,284.5,486.7,284.4,486.4,284.2z"/>
		<path fill="#555555" d="M486.4,283.2c0,0.1,0,0.1,0,0.2c-0.1,0.7-0.8,0.7-1.2,1C485,283.4,485.4,283,486.4,283.2z"/>
		<path fill="#7B7B7B" d="M485.2,287c0.1,0,0.1,0,0.2,0c0.5,0.3,1,0.4,0.8,1.1C485.1,288.4,485.2,287.7,485.2,287z"/>
		<path fill="#6D6D6D" d="M490.2,283.1c0.6,0,1.1,0.3,1,1c0,0-0.1,0.1-0.1,0.1c-0.2,0.2-0.5,0.2-0.7,0.1c-0.1,0-0.2-0.1-0.3-0.2
			c-0.1-0.2-0.1-0.5-0.1-0.8C490.1,283.3,490.1,283.2,490.2,283.1z"/>
		<path fill="#505050" d="M489.3,283.2c0-0.3,0-0.6,0-0.9c0.3,0,0.7,0,1,0c0,0.3,0,0.6,0,0.9c0,0,0,0.1,0,0.1
			C489.9,283.5,489.5,283.4,489.3,283.2L489.3,283.2z"/>
		<path fill="#7B7B7B" d="M489.2,289.2c0-0.3,0-0.6,0-0.9c0.2-0.3,0.5-0.3,0.8-0.2c0.1,0,0.2,0.1,0.2,0.2
			C490.3,289.1,489.9,289.3,489.2,289.2z"/>
		<path fill="#757575" d="M487.3,288.3c0,0.3,0,0.6,0,0.9c-0.7,0.1-1.1-0.1-1-0.9c0,0,0-0.1,0-0.1C486.7,288,487,288,487.3,288.3z"
			/>
		<path fill="#949493" d="M491.2,287.3c0.1,0.7-0.3,1-1,1c0,0,0-0.1,0-0.1c-0.3-0.3-0.2-0.6,0-1c0.3-0.2,0.6-0.2,1,0
			C491.1,287.3,491.2,287.3,491.2,287.3z"/>
		<path fill="#6A6A6A" d="M502.7,280.3c-0.2,0-0.3,0-0.5,0c0-0.1,0-0.1,0-0.2c-0.2-0.2-0.2-0.4-0.1-0.6c0,0,0.1-0.1,0.1-0.1
			c0.3,0,0.6,0,0.9,0C503.2,279.7,503.3,280.2,502.7,280.3z"/>
		<path fill="#D6D6D5" d="M397.1,80.1c0.1,0,0.1,0.1,0.2,0.1c0.4,0.3,0.3,0.7,0.1,1.1c-0.1,0.1-0.2,0.1-0.4,0.1
			c-0.1-0.1-0.2-0.2-0.3-0.3c-0.7-0.4-1.5-0.3-2.2-0.3c-18.2,0-36.3,0-54.5,0c-44.1,0-88.1,0-132.2,0c-0.4,0-0.9,0-1.3,0
			c-12.2,0-24.3,0-36.5,0c-6.6,0-13.3,0-19.9,0c-0.5,0-0.7,0.4-0.7,0.8c0,0.6,0,1.1,0,1.7c0,45.9,0,91.9,0,137.8
			c0,0.4,0,0.8-0.3,1.1c-0.3,0-0.6,0-0.9,0c0-11.4,0-22.9,0-34.3c0-35.7,0-71.3,0-107c0-0.2,0-0.3,0-0.5c0.3-0.3,0.8-0.2,1.2-0.3
			c0.2-0.2,0.5-0.2,0.7,0c0.7,0,1.4,0,2.2,0c0.3-0.2,0.6-0.2,1,0c5,0,10.1,0,15.1,0c0.4-0.3,0.8-0.3,1.2-0.3c0.5,0,1,0,1.4,0
			c74.6,0,149.2,0,223.8,0C395.6,79.8,396.4,79.6,397.1,80.1z"/>
		<path fill="#EFEEEE" d="M341.1,221.3c0,0.3,0,0.6,0,0.9c-0.9,0-1.8,0-2.8,0c-53.3,0-106.6,0-159.8,0c-0.4,0-0.9,0-1.3,0
			c-0.3-0.4-0.3-0.7,0.1-1.1c0.5-0.2,1-0.2,1.5-0.2c53.5,0,107,0,160.6,0C340,220.9,340.6,220.8,341.1,221.3z"/>
		<path fill="#E7E7E7" d="M177.2,221.3c0,0.3,0,0.6,0,0.9c-9.4,0-18.7,0-28.1,0c0-0.3,0-0.6,0-0.9c0.1-0.1,0.3-0.2,0.4-0.2
			c2.2-0.3,4.4-0.1,6.6-0.1c6.5,0,12.9,0,19.4,0C176.1,221,176.7,220.8,177.2,221.3z"/>
		<path fill="#838283" d="M446.3,152.2c0.3,0,0.6,0,0.9,0c0,1,0,1.9,0,2.9c0,39.4,0,78.8,0,118.2c0,0.4,0,0.7,0,1.1
			c-0.3,0-0.6,0-0.9,0c0,0-0.1,0-0.1,0c-0.3-0.5-0.2-1-0.2-1.5c0-39.7,0-79.3,0-119C445.9,153.2,445.8,152.6,446.3,152.2z"/>
		<path fill="#D7D8D7" d="M446.3,152.2c0,32.2,0,64.5,0,96.7c0,8.1,0,16.2,0,24.2c0,0.4-0.1,0.8-0.1,1.2c-10.9,0-21.9,0-32.8,0
			c-19.1,0-38.2,0-57.3,0c0.1-0.6,0.6-0.5,1-0.6c0.6-0.1,1.1,0,1.7,0c24.5,0,49.1,0,73.6,0c4,0,8,0,12,0c0.5,0,1.1,0.2,1.3-0.5
			c0.1-10.1,0.1-20.2,0.1-30.3c-0.1-0.7,0-1.4,0-2c0-28.6,0-57.2,0-85.8c0-2.4,0.1-2.3-2.3-2.3c-28.5,0-56.9,0-85.4,0
			c-2.2,0-2.2,0-2.2,2.2c0,38.9,0,77.9,0,116.8c0,0.8,0.2,1.7-0.4,2.4c-0.3,0-0.6,0-1,0c0-0.4-0.1-0.7-0.1-1.1c0-40,0-80,0-120
			c0-0.4,0.1-0.7,0.1-1.1c0.3-0.3,0.7-0.3,1.1-0.3c4.9,0,9.8,0,14.7,0c24.6,0,49.2,0,73.8,0c0.6,0,1.2-0.1,1.8,0.1
			C446,152,446.1,152.1,446.3,152.2L446.3,152.2z"/>
		<path fill="#90908F" d="M355.3,152.1c-0.3,0-0.6,0-0.9,0c0-0.3,0-0.6,0-0.9c19,0,37.9,0,56.9,0c11.3,0,22.6,0,33.8,0
			c0.4,0,0.8,0,1.2,0.1c0,0.3,0,0.6,0,0.9c-0.1,0-0.1,0-0.2-0.1c-0.4-0.4-0.9-0.3-1.3-0.3c-29.3,0-58.7,0-88,0
			C356.2,151.8,355.7,151.7,355.3,152.1z"/>
		<path fill="#424242" d="M342.3,142.3c-0.2-0.8,0.2-1.2,1-1.2c0,0.4,0,0.8,0,1.3C343,142.3,342.7,142.3,342.3,142.3z"/>
		<path fill="#D6D5D5" d="M341.2,143.1c0.1-0.7-0.6-1.7,0.9-1.7c0,0.3,0,0.6,0,0.9C341.5,142.2,341.4,142.7,341.2,143.1z"/>
		<path fill="#6D6D6D" d="M397.1,80.1c-0.9,0-1.8,0-2.6,0c-74.8,0-149.7,0-224.5,0c-0.5,0-1,0-1.6,0c0-0.4,0.1-0.7,0.6-0.7
			c0.4,0,0.8,0,1.2,0c75.6,0,151.3,0,226.9,0C397.1,79.7,397.1,79.9,397.1,80.1z"/>
		<path fill="#6D6D6D" d="M153.2,80.1c-0.3,0-0.6,0-1,0c0-0.4,0-0.7,0.5-0.7C153.3,79.5,153.2,79.8,153.2,80.1z"/>
		<path fill="#6D6D6D" d="M150.1,80.1c-0.2,0-0.5,0-0.7,0c0-0.3-0.1-0.7,0.4-0.6C150.2,79.5,150.1,79.9,150.1,80.1z"/>
		<path fill="#858484" d="M397.3,81.4c0-0.4,0-0.8,0-1.1c0.4-0.1,0.7,0,1,0.2c0,19.3,0,38.5,0,57.8c-0.3,0.3-0.1,1.2-1,0.9
			c-0.4-0.7-0.1-1.5-0.1-2.2c0-18.1,0-36.1,0-54.2C397.2,82.3,397.1,81.8,397.3,81.4z"/>
		<path fill="#DBDAD9" d="M397.3,81.4c0,0.5,0,1,0,1.4c0,18.1,0,36.3,0,54.4c0,0.6,0,1.3,0,1.9c-0.3,0-0.6,0.1-0.8,0.1
			c-16.8,0-33.7,0-50.5,0c-0.2,0-0.5,0-0.7,0c-0.1-0.6,0.1-1,0.8-0.9c0.3,0,0.6,0,1,0c16.2,0,32.4,0,48.6,0c1.2,0,1.5-0.3,1.5-1.5
			c0-18.5,0-36.9,0-55.4C397.2,81.4,397.2,81.4,397.3,81.4z"/>
		<path fill="#FFFFFF" d="M278.1,238.3c0.1,0,0.1,0,0.2,0.1c0,0.3,0,0.6,0.1,0.9c0.3,0.4,0.6,0.7,0.9,1l0.1,0c0,0.6,0,1.3-0.1,1.9
			c-0.3,0.3-0.7,0.6-0.9,1c0,0.4,0,0.8,0,1.2c0,0.2,0,0.5,0,0.7c-0.5,0.3-1.2,0.3-1,1.2c-0.3,0-0.6,0-0.9,0.1
			c-0.4,0.3-0.9,0.5-1.2,1l0,0c-1.3,0-2.6,0-3.9,0l0,0c-0.3-0.5-0.8-0.7-1.2-1c-0.3,0-0.6,0-0.9-0.1c0.2-0.8-0.5-0.9-1-1.2
			c0-0.2,0-0.5,0-0.7c0-0.7,0.1-1.3-0.9-1.2c0-0.3-0.1-0.6-0.1-0.9c0-0.6,0-1.3,0-1.9c0-0.3,0.1-0.6,0.1-1c0.8,0.1,1-0.2,0.9-1
			c0-0.3,0-0.6,0-0.9c0.3,0,0.7-0.1,0.9-0.3c0.1,0,0.1,0,0.2,0c0.5,0,0.7-0.2,0.8-0.7c0.1-0.1,0.1-0.2,0.2-0.3c0,0,0,0,0,0
			c0.3,0,0.6,0,1,0c0.3-0.3,0.7-0.4,1-0.7c0.6,0,1.3,0,1.9,0c0.3,0.3,0.7,0.4,1,0.7c0.1,0,0.1,0,0.2,0c0.8,0.1,1.1,1.1,1.9,1.2l0,0
			C277.6,237.6,277.7,238.1,278.1,238.3z"/>
		<path fill="#EAEAEA" d="M278.3,243.1c-0.1-0.7,0.1-1.1,0.9-1c0,0.3,0,0.6,0,1C278.9,243.1,278.6,243.1,278.3,243.1z"/>
		<path fill="#FEFEFE" d="M398.3,285.4c-0.2-0.4-0.1-1.1-0.9-1c0-0.7,0-1.4,0-2.1c0.3-0.3,0.4-0.7,0.7-1c0.1-0.1,0.2-0.2,0.3-0.2
			c0.9,0.6,1,0.1,1-0.7c0.7-0.1,1.4-0.1,2.2,0c-0.1,0.7,0.6,0.7,1,0.9c0.3,0,0.6,0,0.8,0.1c0,0.3,0,0.6,0.1,0.9
			c0.4,0.6,0.4,1.3,0,1.9c0,0.3-0.1,0.6-0.1,0.9c-0.8,0-1.2,0.3-1.1,1.1c-0.3,0-0.6,0.1-0.9,0.1c-0.7,0.4-1.3,0.4-1.9,0
			c-0.3,0-0.6,0-0.9-0.1C398.3,286,398.3,285.7,398.3,285.4z"/>
		<path fill="#ADACAD" d="M398,281.2c0.1,0.6,0.1,1-0.7,1c0-0.3,0-0.6,0-1C397.6,281.3,397.8,281.3,398,281.2z"/>
		<path fill="#D8D8D7" d="M272.3,235.5c0.1,0.8-0.5,0.7-1,0.7C271.2,235.4,271.8,235.4,272.3,235.5z"/>
		<path fill="#D0D0D0" d="M275.2,236.1c-0.5,0-1,0.1-1-0.7c0.1,0,0.2,0,0.3,0C275,235.4,275.2,235.6,275.2,236.1z"/>
		<path fill="#A8A7A7" d="M399.2,286.3c0.6,0,1.3,0,1.9,0c-0.2,1.3-1.3,0.4-1.9,0.7C399.3,286.8,399.2,286.6,399.2,286.3z"/>
		<path fill="#ACACAC" d="M403.4,284.2c0-0.6,0-1.3,0-1.9c0.2,0,0.5,0,0.7,0C403.8,282.9,404.7,283.9,403.4,284.2z"/>
		<path fill="#B8B6B6" d="M270.3,236.1c0,0.1,0,0.2,0,0.2c-0.4,0.3-0.7,0.7-1.2,0.8c0,0,0-0.1,0-0.1c0-0.3,0-0.6,0-0.9
			C269.6,236.2,270,236.2,270.3,236.1z"/>
		<path fill="#D6D5D5" d="M275.2,247.2c-0.2-1,0.5-1,1.2-1c0,0.3,0,0.6,0,0.9C275.9,247.2,275.6,247.2,275.2,247.2z"/>
		<path fill="#E8E8E8" d="M270.1,246.2c0.7,0,1.4-0.1,1.2,1c-0.4,0-0.8,0-1.2-0.1C270.1,246.8,270.1,246.5,270.1,246.2z"/>
		<path fill="#DEDEDD" d="M279.2,240.3c-0.8,0.1-1-0.3-0.9-1c0.3,0,0.6,0,0.9,0C279.2,239.6,279.2,239.9,279.2,240.3z"/>
		<path fill="#DFDEDE" d="M278.1,238.3c-0.8,0.1-0.8-0.4-0.8-0.9C278.1,237.3,278.1,237.8,278.1,238.3z"/>
		<path fill="#AAA9A9" d="M474.4,279.3c7.6-0.1,15.2-0.1,22.8-0.2c1.7,0,3.4-0.1,5,0.2c0,0.2,0,0.5,0,0.7c-8.9,0-17.9,0-26.8,0
			C474.8,280.1,474.2,280.2,474.4,279.3z"/>
		<path fill="#F2F2F2" d="M490.2,287.3c0,0.3,0,0.6,0,0.9c-0.3,0-0.6,0-0.9,0.1c-0.7,0-1.3,0-2,0c-0.3,0-0.6-0.1-0.9-0.1
			c0.2-1-0.2-1.9-0.2-2.8c0-0.4,0-0.8,0.3-1.1c1-0.2,1.7-1.2,2.8-0.7c0.3,0.2,0.7,0.4,1,0.7l0,0c0.1,0.1,0.2,0.2,0.2,0.4
			C490.5,285.5,490.8,286.4,490.2,287.3z"/>
		<path fill="#DBDADA" d="M490.2,287.3c0-1,0-1.9,0-2.9c0.6-0.1,0.6,0.5,0.9,0.7c0.1,0.7,0.1,1.4,0,2.1
			C490.8,287.3,490.5,287.3,490.2,287.3z"/>
		<path fill="#BCBCBC" d="M491.1,285.1c-0.6,0.1-0.6-0.5-0.9-0.7c0-0.1,0-0.2,0-0.3c0.3,0,0.6,0,0.9,0.1
			C491.1,284.5,491.1,284.8,491.1,285.1z"/>
		<path fill="#C8C8C7" d="M490.2,284.1c-0.5,0-1,0.1-1-0.7c0-0.1,0-0.2,0-0.2c0.3,0,0.6,0,0.9,0
			C490.2,283.6,490.2,283.9,490.2,284.1z"/>
		<path fill="#F7F8F8" d="M397.1,81.4c-70.4,0-140.8,0-211.2,0c-0.1-0.2,0-0.3,0.1-0.4c0.5-0.3,1.1-0.2,1.6-0.2c5.8,0,11.6,0,17.4,0
			c0.5,0,1,0.1,1.5-0.3c1.4,0,2.8,0,4.2,0c61.6,0,123.3,0,184.9,0C396.3,80.4,397.2,80.1,397.1,81.4z"/>
		<path fill="#F3F3F3" d="M185.9,81.1c0,0.1,0,0.2,0,0.2c-3.2,0-6.4,0-9.6,0c-8.5,0-16.9,0-25.4,0c-1.1,0-1.5,0.3-1.5,1.4
			c0,46.2,0,92.3,0,138.5c0,0-0.1,0-0.1,0s-0.1,0-0.1,0c0-22.7,0-45.4,0-68c0-23.8,0-47.6,0-71.4c0-0.6-0.3-1.6,0.9-1.4
			c0.4,0.5,1,0.3,1.6,0.3c6.1,0,12.3,0,18.4,0c4.8,0,9.6,0,14.4,0C184.9,80.8,185.5,80.7,185.9,81.1z"/>
		<path fill="#F0F0F1" d="M185.9,81.1c-5.3,0-10.6,0-15.8,0c-0.2-0.2-0.2-0.5,0-0.7c12.2,0,24.3,0,36.5,0c0,0.9-0.7,0.7-1.2,0.7
			C198.8,81.1,192.4,81.1,185.9,81.1z"/>
		<path fill="#E7E7E7" d="M170,80.4c0,0.2,0,0.5,0,0.7c-6.2,0-12.5,0-18.7,0c-0.5,0-1.2,0.2-1.2-0.7C156.8,80.4,163.4,80.4,170,80.4
			z"/>
		<path fill="#9E9D9D" d="M355.3,152.1c0-0.5,0.2-0.7,0.7-0.7c0.6,0,1.1,0,1.7,0c29,0,57.9,0,86.9,0c0.5,0,1.4-0.5,1.4,0.7
			c-13.2,0-26.4,0-39.6,0c-16.2,0-32.4,0-48.5,0C357.1,152.1,356.2,152.1,355.3,152.1z"/>
		<path fill="#E8E7E7" d="M269.2,237.2c0.2-0.5,0.5-1,1.2-0.8C270.4,237.3,270,237.5,269.2,237.2z"/>
	</g>
</g>
<g id="computer">
	<g>
		<path d="M436.5,24H77.6c-6,0-10.9,4.9-10.9,10.9v245.3c0,6,4.9,10.9,10.9,10.9h135.9l-5.9,33.4l-16.2,4.1v5.2h130.8v-5.2
			l-13.8-3.4l-6-34.1h134.3c6,0,10.9-4.9,10.9-10.9V34.9C447.4,28.9,442.5,24,436.5,24z"/>
		<rect x="88.6" y="45.8" fill="#414042" stroke="#939598" stroke-width="2" stroke-miterlimit="10" width="337.3" height="191.5"/>
		<circle fill="#939598" cx="257.2" cy="263.5" r="9.5"/>
	</g>
</g>
<g id="computer_screen">
	<rect x="99" y="53.7" fill="#00AEEF" width="67.6" height="28.4"/>
	<g>
		<rect x="389.6" y="68.6" fill="#00AEEF" width="27" height="13.5"/>
		<rect x="346.8" y="68.6" fill="#00AEEF" width="27" height="13.5"/>
		<rect x="304" y="68.6" fill="#00AEEF" width="27" height="13.5"/>
		<rect x="261.2" y="68.6" fill="#00AEEF" width="27" height="13.5"/>
	</g>
	<rect x="98.6" y="94.3" fill="#939598" width="319" height="44.5"/>
	<rect x="98" y="149" fill="#D1D3D4" width="155.4" height="43.2"/>
	<rect x="261.8" y="149" fill="#D1D3D4" width="155.4" height="43.2"/>
	<rect x="98.2" y="202.7" fill="#939598" width="94.6" height="35.2"/>
	<rect x="210.5" y="202.7" fill="#939598" width="94.6" height="35.2"/>
	<rect x="321.4" y="202.7" fill="#939598" width="94.6" height="35.2"/>
</g>
<g id="ipad">
	<g>
		<path d="M355.6,125.2h147.3c3.6,0,6.6,3,6.6,6.6V326c0,3.6-3,6.6-6.6,6.6H355.6c-3.6,0-6.6-3-6.6-6.6V131.8
			C349,128.2,352,125.2,355.6,125.2z"/>
		<rect x="367.6" y="142" fill="#414042" stroke="#939598" stroke-miterlimit="10" width="123.4" height="165.8"/>
		<circle fill="#939598" cx="429.3" cy="320.9" r="4.6"/>
	</g>
</g>
<g id="ipad_screen">
	<rect x="375.8" y="149" fill="#00AEEF" width="67.6" height="28.4"/>
	<g>
		<rect x="457.1" y="164.8" fill="#00AEEF" width="27" height="4.1"/>
		<rect x="457.1" y="172" fill="#00AEEF" width="27" height="4.1"/>
		<rect x="457.1" y="157.6" fill="#00AEEF" width="27" height="4.1"/>
		<rect x="457.1" y="150.4" fill="#00AEEF" width="27" height="4.1"/>
	</g>
	<rect x="375.2" y="189.5" fill="#939598" width="108.1" height="32.4"/>
	<rect x="376" y="231.1" fill="#D1D3D4" width="51.4" height="32.4"/>
	<rect x="432" y="231.1" fill="#D1D3D4" width="51.4" height="32.4"/>
	<rect x="375.2" y="272.9" fill="#939598" width="32.2" height="35.2"/>
	<rect x="413.4" y="272.9" fill="#939598" width="32.2" height="35.2"/>
	<rect x="451.1" y="272.9" fill="#939598" width="32.2" height="35.2"/>
</g>
<g id="phone">
	<g>
		<path d="M569,331.9h-42.9c-2.4,0-4.3-1.9-4.3-4.3V238c0-2.4,1.9-4.3,4.3-4.3H569c2.4,0,4.3,1.9,4.3,4.3v89.6
			C573.3,330,571.4,331.9,569,331.9z"/>
		
			<rect x="528.6" y="248.6" fill="#414042" stroke="#939598" stroke-width="0.75" stroke-miterlimit="10" width="37.8" height="67.3"/>
		<circle fill="#939598" cx="547.6" cy="324.1" r="4.1"/>
	</g>
</g>
<g id="phone_screen">
	<rect x="528.6" y="248.5" fill="#00AEEF" width="37.8" height="14.9"/>
	<rect x="528.6" y="264.5" fill="#939598" width="37.8" height="15.8"/>
	<rect x="528.6" y="282.4" fill="#D1D3D4" width="37.8" height="15.8"/>
	<rect x="528.6" y="300.2" fill="#D1D3D4" width="37.8" height="15.8"/>
</g>
</svg>
